gedci,N° de dossier,Type de dossier,Prénom,Nom,Adresse mail,Date de naissance,Dernier établissement du dossier académique,Nom groupement – établissement choisi,Niveau d’études atteint,Niveau d’étude visé,Etat du dossier,Etat de l’entretien,Etat de paiement,Date de première soumission,Date de dernière soumission du dossier,Date de validation du dossier,Date de l’entretien,Date de validation du paiement
0,CI18-02513-P01,Pré-consulaire,Lynne Esther,N'GUESSAN,lynne.nguessan@yahoo.fr,1992-12-19,"AGITEL Formation Abj-Cocody, Abidjan, Région Des Lagunes, Côte d'Ivoire",Ecole supérieure de gestion et commerce international - Pôle ESG,Bac +3,Bac +4,Instruction SCAC terminée,Planifié,Validé,2018-09-03 14:07,2018-08-16 12:30,2018-08-16 12:42,2018-08-16 09:15,2018-08-16 12:18
1,CI16-13721-P02,Pré-consulaire,Ousmane,DOUMBIA,doumbiaousmane905@gmail.com,1996-01-28,"Lycée Classique Abidjan, Abidjan, Région Des Lagunes, Côte d'Ivoire",Université Nice - Sophia Antipolis - IUT de Nice Côte d'Azur,Bac (terminale),Bac + 1,Décision Visa Renseignée,Non autorisé,Pas demandé,2018-03-27 11:39,2018-03-27 11:39,2018-05-04 10:31,,
2,CI16-15998-P01,Pré-consulaire,Floriaud Cedric,KOUAO,kouao2516@yahoo.com,1994-09-20,"Université virtuelle de cote d'ivoire, Abidjan, Région Des Lagunes, Côte d'Ivoire","Institut d'Enseignement Supérieur d'Informatique et de Gestion ( IESIG),",Bac +1,Bac +1,Décision Visa Renseignée,Planifié,Pas demandé,2018-04-15 10:05,2018-05-17 20:09,2018-06-16 10:20,2018-06-13 10:45,
3,CI17-19163-P01,Pré-consulaire,Aya Ekoun Debora,KOUAKOU,abbeleonce@gmail.com,1996-12-20,"Université Félix Houphouët-Boigny, Abidjan, Région Des Lagunes, Côte d'Ivoire",Université de Limoges - Faculté de Droit et des Sciences Economiques,Bac +1,Bac + 1,Décision Visa Renseignée,Non autorisé,Pas demandé,2018-08-05 15:44,2018-08-05 15:44,,,
4,CI17-16218-P01,Pré-consulaire,Oumou Korotoum Katiana,DIABY,oumoukkdiaby@gmail.com,1994-04-26,"Institut Universitaire d'Abidjan (IUA), Abidjan, Région Des Lagunes, Côte d'Ivoire",Université de Franche-Comté - IUT Besançon-Vesoul,Bac +3,Bac + 3,Décision Visa Renseignée,Non autorisé,Pas demandé,2018-05-18 18:18,2018-05-23 14:43,2018-05-23 14:43,,
5,CI17-14208-P01,Pré-consulaire,Morifing Abdoulaye,BAMBA,babdouleye@gmail.com,1996-03-21,"INP-HB, Yamoussoukro, Région Des Lacs, Côte d'Ivoire",Université de Lorraine - Ecole nationale supérieure des industries chimiques - Site de Nancy,Bac +3,Bac +4,Décision Visa Renseignée,Planifié,Validé,2018-05-25 12:14,2018-05-25 12:14,2018-06-19 14:10,2018-06-19 10:45,2018-06-20 16:45
6,CI15-01797-P02,Pré-consulaire,Allassane,COULIBALY,coulallassane@gmail.com,1991-11-24,"Lycée Professionnel de Jacqueville, Jacqueville, Région Des Lagunes, Côte d'Ivoire",Lycée Gustave Eiffel,Bac (terminale),Bac + 1,Décision Visa Renseignée,Planifié,Validé,2018-05-28 23:57,2018-06-18 15:53,2018-06-25 14:50,2018-06-25 13:45,2018-06-26 11:03
7,CI17-19861-P01,Pré-consulaire,Jean-Marc,GODO-SOLO,godojean03@gmail.com,1999-12-08,"INSAAC -ESAPAD  ( école supérieure de l'architecture et du design ), cocody, Région Des Lagunes, Côte d'Ivoire",Université catholique de l'Ouest - Faculté des humanités - UCO,Bac +1,Bac + 1,Décision Visa Renseignée,Planifié,Validé,2018-07-04 00:24,2018-05-23 18:50,2018-05-28 17:38,2018-05-28 14:30,2018-05-29 11:44
8,CI18-06167-P01,Pré-consulaire,Emmanuel,YAPI,manuyap@hotmail.fr,1997-11-02,"Ecole Hoteliere de Grand-Bassam, Abidjan, Région Des Lagunes, Côte d'Ivoire",École internationale Tunon,Bac +1,Bac +1,Décision Visa Renseignée,Planifié,Validé,2018-05-19 11:09,2018-07-26 12:21,2018-07-26 12:22,2018-07-26 10:00,2018-08-22 17:42
9,CI18-07560-P01,Pré-consulaire,Amoia Prisca-Alixone,YORO,alixonepriscilla@gmail.com,1998-07-25,"ESTTA LOKO Abj-Plateau, Abidjan, Région Des Lagunes, Côte d'Ivoire",Lycée Jan Lavezzari,Bac +1,Bac + 1,En saisie étudiant,Non autorisé,Pas demandé,2018-05-06 19:05,2018-07-18 11:24,,,
10,CI18-01941-P01,Pré-consulaire,Bla Eya Isabelle,KOFFI,isabellecampusfrance@gmail.com,1990-10-17,"Université Félix Houphouët-Boigny, Abidjan, Région Des Lagunes, Côte d'Ivoire",Université de Grenoble Alpes - UFR Economie et Gestion,Bac +4,Bac + 3,Décision Visa Renseignée,Non autorisé,Pas demandé,2018-08-06 17:20,2018-06-20 11:37,2018-06-20 11:38,,
11,CI17-22595-P01,Pré-consulaire,Miriam Lonniba Ruth,BALLO,balloruth99@gmail.com,1999-05-05,"Cours Supérieur Notre Dame du Plateau, Abidjan, Région Des Lagunes, Côte d'Ivoire",,Bac (terminale),,Décision Visa Renseignée,Non autorisé,Pas demandé,2018-05-28 13:54,2018-06-20 18:39,2018-06-20 18:39,,
12,CI18-06621-P01,Pré-consulaire,Yann Merlin,KOUADIO,yannmerlinkouadio@gmail.com,1995-07-15,"INP-HB, Yamoussoukro, Région Des Lacs, Côte d'Ivoire",Montpellier SupAgro - Institut national d'études supérieures agronomiques de Montpellier - Site de Montpellier,Bac +4,Bac +4,Décision Visa Renseignée,Planifié,Validé,2018-05-06 10:59,2018-05-06 10:59,2018-06-19 17:47,2018-06-19 15:15,2018-06-20 11:43
13,CI15-02320-P01,Pré-consulaire,Nagué Marius Ephrème,GBADIA,naguemariusephremegbadia@yahoo.fr,1995-10-09,"ESATIC, Abidjan, Région Des Lagunes, Côte d'Ivoire",ICOGES,Bac +4,Bac +4,Décision Visa Renseignée,Planifié,Validé,2018-04-30 11:28,2018-03-07 16:55,2018-03-07 17:46,2018-03-07 14:30,2018-03-07 10:05
14,CI17-12839-P01,Pré-consulaire,Akissi Grace Doriane,N'GUESSAN,nguessangrace35@gmail.com,2000-12-11,"PIGIER Abj-Plateau, Abidjan, Région Des Lagunes, Côte d'Ivoire",Université catholique de l'Ouest - Faculté des sciences - UCO,Bac +1,,Décision Visa Renseignée,Planifié,Pas demandé,2018-04-13 15:45,2018-04-13 15:45,2018-05-28 13:58,2018-05-28 10:00,
15,CI17-12790-P01,Pré-consulaire,Yah Élisabeth Thémis Cassandre,OHOUSSOU,cassandreohoussou@hotmail.fr,1992-06-14,"Institut Supérieur de Technologie de Côte d'Ivoire Abj-Plateau (IST-CI), Abidjan, Région Des Lagunes, Côte d'Ivoire",Association pour la formation de la biochimie et de la biologie,Bac +2,Bac + 1,Décision Visa Renseignée,Planifié,Validé,2018-10-06 08:02,2018-02-08 16:51,2018-03-08 11:00,2018-02-08 14:30,2018-08-22 18:40
16,CI17-22421-P01,Pré-consulaire,Tiemoko Abdul-Aziz,DIOMANDE,homerlmp@gmail.com,1993-10-12,"Centre International de Formation à l'Expertise Comptable, Abidjan, Région Des Lagunes, Côte d'Ivoire",Grenoble Ecole de management,Bac +3,,Décision Visa Renseignée,Planifié,Validé,2018-09-05 10:40,2018-07-06 20:25,2018-06-25 12:13,2018-06-18 14:30,2018-01-06 11:06
17,CI17-18995-P01,Pré-consulaire,Zlangnan Grace Emmanuelle,MAN,mangraceemmanuelle@gmail.com,1997-10-30,"Université Catholique d'Afrique de l'Ouest, Abidjan, Région Des Lagunes, Côte d'Ivoire",Université Paris 1 Panthéon-Sorbonne - Ecole de droit de la Sorbonne (EDS),Bac +4,Bac + 4,Décision Visa Renseignée,Non autorisé,Pas demandé,2018-06-13 15:28,2018-06-13 15:28,,,
18,CI17-00562-P01,Pré-consulaire,M'Bai Rostand,OFFOUMOU,orostand@yahoo.fr,1987-09-23,"Université Félix Houphouët-Boigny, Abidjan, Région Des Lagunes, Côte d'Ivoire",Université de Bordeaux - Unité de formation de biologie,Bac +7,Bac + 4,Décision Visa Renseignée,Non autorisé,Pas demandé,2018-06-14 10:34,2018-06-30 12:01,2018-05-07 13:30,,
19,CI15-00750-P02,Pré-consulaire,Affoué Anastasie,YOCOLI,anastasieyocoli@yahoo.fr,1994-12-22,"Ecole de Spécialité Multimédia d'Abidjan Marcory (ESMA), Abidjan, Région Des Lagunes, Côte d'Ivoire",Section d'enseignement général et technologique du lycée professionnel Skhole d'Art,Bac +2,Bac +2,Décision Visa Renseignée,Planifié,Pas demandé,2018-05-30 19:32,2018-06-19 09:46,2018-05-07 13:48,2018-05-07 10:00,
20,CI18-02891-P01,Pré-consulaire,Lamine,DIALLO,diallolaminedl452@gmail.com,1994-12-10,"ECOLE SUPERIEURE DE COMMERCE BOUAKE, Bouaké, Région De La Vallée Du Bandama, Côte d'Ivoire",Université Caen Normandie - UFR de droit et sciences politiques,Bac +3,Bac + 2,Décision Visa Renseignée,Non autorisé,Pas demandé,2018-06-18 19:17,2018-06-20 11:23,2018-06-20 11:25,,
21,CI18-07781-P01,Pré-consulaire,Eric Xavier,N'GUESSAN,eric.xavier.nguessan@gmail.com,1997-04-15,"INP-HB, Abidjan, Région Des Lagunes, Côte d'Ivoire",IMT Atlantique - IMT Atlantique - Site de Rennes,Bac +4,Bac +5,Décision Visa Renseignée,Planifié,Validé,2018-06-06 19:10,2018-06-26 10:33,2018-06-26 16:50,2018-06-26 14:30,2018-06-29 10:03
22,CI18-01144-P01,Pré-consulaire,Virgil Franck Philippe Cédrick,KOFFI,kvirgilfranck@gmail.com,1995-09-17,"Ecole supérieure des industries du textile et de l'habillement, Casablanca, CASABLANCA, Maroc",SKEMA Business School - SKEMA Business School - Lille,Bac +5,,Décision Visa Renseignée,Planifié,Validé,2018-10-03 17:06,2018-07-06 21:14,2018-07-13 19:20,2018-07-13 10:00,2018-03-19 13:12
23,CI16-13292-P02,Pré-consulaire,Ramata,DAO,daoramata09@yahoo.com,1992-09-21,"Université de Jean Lorougnon GUEDE, Daloa, Région Du Haut-Sassandra, Côte d'Ivoire",Université d'Evry-Val-d'Essonne - UFR de droit et sciences politiques,Bac +5,Bac + 4,En saisie étudiant,Non autorisé,Pas demandé,2018-06-21 23:27,2018-06-21 23:27,,,
24,CI17-22703-P01,Pré-consulaire,Christian Yannick,BESSE,beschristyann@hotmail.com,1997-02-12,"Institut des Technologies d'Abidjan Marcory, Abidjan, Région Des Lagunes, Côte d'Ivoire",EFREI-ESIGETEL - Ecole d'ingénieur des technologies de l'information et de la communication,Bac +2,Bac + 3,Décision Visa Renseignée,Planifié,Validé,2018-04-06 17:18,2018-06-15 12:24,2018-06-25 12:07,2018-06-25 09:15,2018-06-25 10:12
25,CI15-01858-P02,Pré-consulaire,Ama Marie Fortunat Georgina Elisabeth,AHUA,f.andrea862@yahoo.fr,1997-08-14,"Université Félix Houphouët-Boigny, Abidjan, Région Des Lagunes, Côte d'Ivoire",Groupe ESC Troyes,Bac +3,Bac + 2,Décision Visa Renseignée,Planifié,Validé,2018-06-06 09:13,2018-06-23 09:59,2018-11-07 13:59,2018-11-07 10:45,2018-11-07 10:36
26,CI18-07887-P01,Pré-consulaire,Gningninri Noël,COULIBALY,noelcoulibaly00@gmail.com,1980-12-24,"Institut National de Formation Sociale, Abidjan, Région Des Lagunes, Côte d'Ivoire",Askoria - site de Rennes,Bac +3,,En saisie étudiant,Non autorisé,Pas demandé,2018-06-20 13:42,2018-10-07 17:26,,,
27,CI18-07919-P01,Pré-consulaire,Claude Olivia,ATANGANA EKONGOLO,stololivia@yahoo.com,1992-03-05,"CENTRE INTERNATIONAL DES METIERS DE L'AVIATION ET DU TOURISME, Abidjan, Région Des Lagunes, Côte d'Ivoire",Ecole technique privée Grand sud formation tourisme,Bac +1,Bac + 2,Décision Visa Renseignée,Planifié,Validé,2018-06-18 17:21,2018-06-07 15:12,2018-07-30 18:16,2018-07-30 13:45,2018-07-26 10:01
28,CI17-02601-P02,Pré-consulaire,Esther Andrée Cynthia,KACOU,estherkacou29@gmail.com,1994-09-29,"Université Mundiapolis, casablanca, nouaceur, Maroc",Institut supérieur européen de gestion,Bac +2,,Décision Visa Renseignée,Planifié,Validé,2018-06-21 18:41,2018-12-07 03:56,2018-07-20 16:20,2018-07-20 13:45,2018-07-23 11:13
29,CI18-08142-P01,Pré-consulaire,Nadia,SYLLA,nadiasylla6@gmail.com,2001-04-18,"Groupe Scolaire Saint Louis Yopougon, Abidjan, Région Des Lagunes, Côte d'Ivoire",Lycée Faidherbe,Bac (terminale),,Décision Visa Renseignée,Planifié,Validé,2018-07-28 01:38,2018-10-08 12:25,2018-10-08 12:33,2018-10-08 10:00,2018-08-24 10:20
30,CI15-02806-P03,Pré-consulaire,Kouamé Constant Mozart,DIA,mozartdia@hotmail.fr,1994-09-23,"CENTRE DE PRÉPARATION AUX DIPLÔMES DE L'EXPERTISE COMPTABLE (CPDEC), Abidjan, Région Des Lagunes, Côte d'Ivoire",Conservatoire national des arts et métiers - Institut national des techniques économiques et comptables CNAM,Bac +3,,Décision Visa Renseignée,Planifié,Validé,2018-10-06 02:17,2018-10-06 02:17,2018-06-07 16:20,2018-06-07 13:45,2018-05-07 09:59
31,CI17-16269-P01,Pré-consulaire,Hamed,OUATTARA,ouattarahamed11@gmail.com,1994-03-02,"GROUPE CEFIAT ABIDJAN SALOMON, Abidjan, Région Des Lagunes, Côte d'Ivoire",Lycée Haroun Tazieff,Bac +2,Bac + 1,En saisie étudiant,Non autorisé,Pas demandé,2018-06-13 00:29,2018-06-13 00:36,,,
32,CI17-20207-P01,Pré-consulaire,Oba Marie-Christelle,OUATTARA,obaouattara@gmail.com,1999-06-13,"Groupe IFPG/ISFPT Abj-Plateau, Abidjan, Région Des Lagunes, Côte d'Ivoire",Lycée privé Beaupeyrat,Bac +1,Bac + 1,Décision Visa Renseignée,Planifié,Pas demandé,2018-06-15 21:57,2018-06-15 21:57,2018-06-29 16:59,2018-06-29 14:30,
33,CI16-00920-P01,Pré-consulaire,Bassamori,FOFANA,fbassamori@yahoo.fr,1988-03-16,"Université de Nangui Abrogoua, Abidjan, Région Des Lagunes, Côte d'Ivoire","Université Vincennes-Saint-Denis - UFR Mathématiques, informatique, technologies, sciences de l'information et de la communication",Bac +4,Bac + 4,Décision Visa Renseignée,Non autorisé,Pas demandé,2018-02-05 21:33,2018-02-05 21:33,,,
34,CI17-02677-P01,Pré-consulaire,Mahamadou,DIAWARA,diawara46@hotmail.com,1995-05-01,"Université Félix Houphouët-Boigny, Abidjan, Région Des Lagunes, Côte d'Ivoire",Université Caen Normandie - UFR des Sciences,Bac +3,Bac + 3,Décision Visa Renseignée,Non autorisé,Pas demandé,2018-05-25 00:16,2018-05-25 00:16,,,
35,CI17-10038-P01,Pré-consulaire,Nan Marie Laure,IRIE,irie.laure17@gmail.com,1994-03-24,"Université Félix Houphouët-Boigny, Abidjan, Région Des Lagunes, Côte d'Ivoire","Université d'Aix-Marseille - UFR arts, lettres, langues, sciences humaines",Bac +4,Bac + 4,Instruction SCAC terminée,Non autorisé,Pas demandé,2018-07-06 13:12,2018-07-06 13:12,,,
36,CI15-02034-P01,Pré-consulaire,Issa,SANGARE,isangare95@gmail.com,1997-06-06,"Institut Cerco, Abidjan, Région Des Lagunes, Côte d'Ivoire",Lycée privé Frédéric Ozanam,Bac +2,Bac + 1,Instruction SCAC terminée,Planifié,Validé,2018-05-25 18:08,2018-05-07 16:51,2018-05-07 16:51,2018-06-25 08:30,2018-06-22 11:07
37,CI18-07534-P01,Pré-consulaire,Abdoulaye,DIAKITE,abdouldiakite05@gmail.com,1998-02-17,"Université Félix Houphouët-Boigny, Abidjan, Région Des Lagunes, Côte d'Ivoire",Aix-Marseille Université - Site de Marseille,Bac +1,Bac +1,Décision Visa Renseignée,Planifié,Validé,2018-05-31 15:26,2018-06-07 12:45,2018-06-07 12:50,2018-06-07 10:00,2018-06-07 10:44
38,CI17-15130-P01,Pré-consulaire,Sibiri Kassoum,OUATTARA,sibirikassoumouattara@gmail.com,1992-12-29,"Université de Jean Lorougnon GUEDE, Daloa, Région Du Haut-Sassandra, Côte d'Ivoire",Université de Poitiers - UFR sciences humaines et arts (Poitiers)-CFMI(Poitiers)-IFFCAM (Ménigoute)-CREADOC (Angoulême),Bac +2,Bac + 2,Décision Visa Renseignée,Non autorisé,Pas demandé,2018-06-20 01:20,2018-06-20 01:20,,,
39,CI16-08863-P01,Pré-consulaire,N'Goran Franck Olivier,N'KRUMAH,frankolivier.nkrumah@gmail.com,1994-02-22,"Université de Jean Lorougnon GUEDE, Daloa, Région Du Haut-Sassandra, Côte d'Ivoire",Université Clermont Auvergne - Ecole d'économie,Bac +4,Bac + 4,Décision Visa Renseignée,Non autorisé,Pas demandé,2018-06-15 21:50,2018-06-15 21:50,,,
40,CI16-09084-P01,Pré-consulaire,Jules Philippe-Emmanuel,KOUAME,philippemmanuel22@gmail.com,1991-11-22,"CERAP/IDDH Cocody, Abidjan, Région Des Lagunes, Côte d'Ivoire",INSEEC.U,Bac +5,Bac +4,Soumis,Autorisé,Demandé,2018-03-07 13:47,2018-03-09 17:18,,,
41,CI17-14626-P01,Pré-consulaire,Irma Gykaelle Azo,KAHOA,kahoairma@gmail.com,1987-10-20,"Université Félix Houphouët-Boigny, Abidjan, Région Des Lagunes, Côte d'Ivoire",Université de Nantes - UFR de sociologie,Bac +6,Bac + 4,Décision Visa Renseignée,Non autorisé,Pas demandé,2018-06-21 15:56,2018-06-21 15:57,,,
42,CI17-13564-P01,Pré-consulaire,Gbazale Pascal,GBATTE,cyrilgbatte7@gmail.com,1987-12-17,"Université Félix Houphouët-Boigny, Abidjan, Région Des Lagunes, Côte d'Ivoire",Université Jean Monnet Saint-Etienne - Faculté de sciences humaines et sociales,Bac +6,Bac + 4,Décision Visa Renseignée,Non autorisé,Pas demandé,2018-06-19 20:17,2018-06-19 20:17,,,
43,CI16-14387-P01,Pré-consulaire,N'Guessan Fabrice Urbain,KOUASSI,kouassiurbain@gmail.com,1987-06-25,"Université Félix Houphouët-Boigny, Abidjan, Région Des Lagunes, Côte d'Ivoire",Université de Versailles Saint-Quentin-en-Yvelines - UFR des sciences sociales,Bac +5,Bac + 4,Instruction SCAC terminée,Non autorisé,Pas demandé,2018-06-14 17:26,2018-06-14 17:26,,,
44,CI18-01026-P01,Pré-consulaire,Jackie Carmen Odette,EDI,jacki_edi@yahoo.fr,1995-03-21,"Institut Polytechnique des Sciences et Techniques de la Communication (ISTC-P), Abidjan, Région Des Lagunes, Côte d'Ivoire",Université Sorbonne Nouvelle - Institut de la communication et des médias,Bac +3,Bac + 3,Décision Visa Renseignée,Non autorisé,Pas demandé,2018-06-21 12:00,2018-05-07 16:54,2018-05-07 16:54,,
45,CI16-13052-P01,Pré-consulaire,Kamenan Ange Anicet,N'GADI,anganicet@gmail.com,1991-09-27,"Université Félix Houphouët-Boigny, Abidjan, Région Des Lagunes, Côte d'Ivoire",Université Toulouse III - Faculté des Sciences et d'Ingénierie-Toulouse III,Bac +3,Bac + 3,Décision Visa Renseignée,Non autorisé,Pas demandé,2018-06-20 13:18,2018-06-20 13:18,2018-06-26 10:24,,
46,CI16-06208-P01,Pré-consulaire,Monlond Jean-Marc,AKA,monlondaka@gmail.com,1988-12-30,"Université Félix Houphouët-Boigny, Abidjan, Région Des Lagunes, Côte d'Ivoire",Université de Montpellier - UFR d'Économie,Bac +4,Bac + 4,Décision Visa Renseignée,Non autorisé,Pas demandé,2018-06-21 00:20,2018-06-21 00:20,,,
47,CI17-15400-P01,Pré-consulaire,Messou Marie-Hermine,AKA,akamariehermine@gmail.com,1997-05-14,"Institut Universitaire d'Abidjan (IUA), Abidjan, Région Des Lagunes, Côte d'Ivoire","Université de Lille - Faculté des sciences juridiques, politiques et sociales + Antenne de Cambrai",Bac +3,Bac + 3,Instruction SCAC terminée,Non autorisé,Pas demandé,2018-06-21 17:30,2018-06-21 17:30,,,
48,CI17-03811-P01,Pré-consulaire,Yohoury Goore Landry,GOORE,gooreyohoury96@gmail.com,1996-01-10,"Université Méthodiste de Côte d'Ivoire, Abidjan, Région Des Lagunes, Côte d'Ivoire",Université de Limoges - Faculté de Droit et des Sciences Economiques,Bac +4,Bac + 4,Décision Visa Renseignée,Non autorisé,Pas demandé,2018-06-18 16:10,2018-06-18 16:10,,,
49,CI17-21231-P01,Pré-consulaire,Koutou Bob Herve,KACOU,koutoubobhervekacou@gmail.com,1993-06-01,"INP-HB, Yamoussoukro, Région Des Lacs, Côte d'Ivoire",AgroParisTech - Centre de Massy,Bac +4,Bac +4,Décision Visa Renseignée,Non autorisé,Pas demandé,2018-01-06 13:17,2018-06-20 15:01,2018-04-07 13:48,,
50,CI17-20174-P01,Pré-consulaire,Koffi Alphonse Delon,N'GUESSAN,alpionsios@yahoo.fr,1990-01-31,"Université Félix Houphouët-Boigny, Abidjan, Région Des Lagunes, Côte d'Ivoire",Université de Lorraine - UFR sciences humaines et sociales Nancy,Bac +6,Bac + 5,Décision Visa Renseignée,Non autorisé,Pas demandé,2018-11-06 18:57,2018-11-06 18:57,,,
51,CI17-21233-P01,Pré-consulaire,Isaac Oualagnonon,COULIBALY,isaac7coul@gmail.com,1987-04-07,"Université Félix Houphouët-Boigny, Abidjan, Région Des Lagunes, Côte d'Ivoire","Université de Franche-Comté - UFR Sciences Juridiques, Economiques, Politiques et de Gestion",Bac +4,Bac + 4,Décision Visa Renseignée,Non autorisé,Pas demandé,2018-05-14 02:15,2018-05-14 02:15,,,
52,CI16-14985-P02,Pré-consulaire,Yao Dominique,BOITINI,b_domiyao77@yahoo.fr,1993-01-01,"EST-LOKO Abj-Marcory, Abidjan, Région Des Lagunes, Côte d'Ivoire",Université Pau et Pays de l'Adour - UFR pluridisciplinaire de Bayonne Anglet Biarritz,Bac +2,,Décision Visa Renseignée,Planifié,Validé,2018-06-16 16:54,2018-06-16 16:54,2018-07-13 17:58,2018-07-13 15:15,2018-07-13 11:29
53,CI17-06004-P01,Pré-consulaire,Azialaud Abdoul Aziz Éric,AKARECO,ericakareco@gmail.com,1993-05-19,"Université Félix Houphouët-Boigny, Abidjan, Région Des Lagunes, Côte d'Ivoire",université de Bourgogne - UFR Sciences humaines,Bac +3,Bac + 3,Décision Visa Renseignée,Non autorisé,Pas demandé,2018-06-20 16:30,2018-06-20 16:30,,,
54,CI18-07856-P01,Pré-consulaire,Lorng Serour Abraham,AGNEROH,abrahamagneroh@gmail.com,1999-05-13,"Institut Britannique de Management et de Technologie Abj-Cocody (IBM-T), Abidjan, Région Des Lagunes, Côte d'Ivoire",SKEMA Business School - SKEMA Business School - Sophia Antipolis,Bac +1,,Soumis,Planifié,Validé,2018-06-14 15:22,2018-08-25 21:13,,2018-11-21 10:00,2018-04-09 10:06
55,CI16-14936-P01,Pré-consulaire,Djaba Rode Evelyne,GNABA,evegnaba28@gmail.com,1994-09-28,"Université Catholique d'Afrique de l'Ouest, Abidjan, Région Des Lagunes, Côte d'Ivoire",Université de Bordeaux - Faculté de droit et science politique,Bac +4,Bac + 4,Décision Visa Renseignée,Non autorisé,Pas demandé,2018-07-06 14:13,2018-07-06 14:13,,,
56,CI17-19206-P01,Pré-consulaire,Ben Kouassi Guichard,HOUPHOUET,ben_guichard98@yahoo.fr,1989-05-16,"INP-HB, Yamoussoukro, Région Des Lacs, Côte d'Ivoire",Université de Lorraine - Faculté des Sciences et Technologies,Bac +3,Bac + 2,Décision Visa Renseignée,Non autorisé,Pas demandé,2018-06-27 10:34,2018-06-27 10:34,2018-05-07 13:22,,
57,CI17-14759-P01,Pré-consulaire,Amanda Adjoua Olive,DJEVIE,adjoua97@gmail.com,1997-07-15,"Université Félix Houphouët-Boigny, Abidjan, Région Des Lagunes, Côte d'Ivoire",Université de Lorraine - IUT Moselle-Est,Bac +1,Bac + 1,Instruction SCAC terminée,Non autorisé,Pas demandé,2018-06-15 02:17,2018-06-15 02:17,2018-02-07 18:54,,
58,CI18-07653-P01,Pré-consulaire,Idrissa Ben Oumar,CISSE,cisseidrissaben@gmail.com,1995-04-28,"Ecole Centrale Casablanca, Casablanca, Casablanca-Settat, Maroc",CentraleSupelec - CentraleSupelec,Bac +4,Bac + 5,En saisie étudiant,Non autorisé,Pas demandé,2018-12-06 11:09,2018-06-28 11:00,,,
59,CI17-19401-P01,Pré-consulaire,Paule Desirée Karell,GOLY,golykarell@gmail.com,1995-03-07,"Université Félix Houphouët-Boigny, Abidjan, Région Des Lagunes, Côte d'Ivoire",Université Paris Nanterre - UFR de sciences sociales et administration,Bac +4,Bac + 3,Décision Visa Renseignée,Non autorisé,Pas demandé,2018-06-28 11:45,2018-06-28 11:45,2018-06-29 18:17,,
60,CI17-07462-P01,Pré-consulaire,Monty Doris,LONLIE,lonliedoris98@gmail.com,1998-01-17,"Institut Universitaire d'Abidjan (IUA), Abidjan, Région Des Lagunes, Côte d'Ivoire",Université de Lille - Faculté des Sciences Economiques et Sociales,Bac +3,Bac + 3,Instruction SCAC terminée,Non autorisé,Pas demandé,2018-05-31 13:49,2018-06-26 10:29,2018-06-26 10:29,,
61,CI17-20970-P01,Pré-consulaire,Kouassi Franck Armand,KOFFI,franckarmandkoffi@gmail.com,1995-07-19,"Université Félix Houphouët-Boigny, Abidjan, Région Des Lagunes, Côte d'Ivoire",Université Paris Diderot - UFR Linguistique,Bac +5,Bac + 4,Décision Visa Renseignée,Non autorisé,Pas demandé,2018-06-22 17:38,2018-06-22 17:38,,,
62,CI18-04199-P01,Pré-consulaire,Adjoba Kenza Marie Nicole,KOFFI,kkenzamarie@gmail.com,2001-02-04,"Maurice Delafosse, Abidjan, Région Des Lagunes, Côte d'Ivoire","Université de Bordeaux - Faculté d'économie, gestion et AES",Bac (terminale),Bac + 1,Décision Visa Renseignée,Non autorisé,Pas demandé,2018-06-29 17:16,2018-06-29 17:16,2018-06-29 18:31,,
63,CI17-21343-P02,Pré-consulaire,Amenan Grâce Prunelle,KOUADIO,amenangraceprunellek@gmail.com,2001-03-28,"Lycée Mamie Fêtai Bingerville, Bingerville, Région Des Lagunes, Côte d'Ivoire",Médicis Business School,Bac (terminale),,Instruction SCAC terminée,Non autorisé,Pas demandé,2018-06-28 15:59,2018-06-28 15:59,2018-07-16 12:22,,
64,CI18-07728-P01,Pré-consulaire,Ama Josephine Esther,KROU,amaesther2001@gmail.com,2001-10-02,"Maurice Delafosse, Abidjan, Région Des Lagunes, Côte d'Ivoire",UNIVERSITE SORBONNE NOUVELLE PARIS 3,Bac (terminale),Bac (terminale),Décision Visa Renseignée,Non autorisé,Pas demandé,2018-04-07 13:41,2018-04-07 13:41,2018-10-07 17:45,,
65,CI16-05126-P01,Pré-consulaire,Pessou Jean Patrick,KONAN,konanpessoupatrick@yahoo.com,1991-07-29,"Université Félix Houphouët-Boigny, Abidjan, Région Des Lagunes, Côte d'Ivoire",Université Caen Normandie - UFR des Sciences,Bac +4,Bac + 3,Décision Visa Renseignée,Non autorisé,Pas demandé,2018-04-05 15:17,2018-05-24 13:07,,,
66,CI17-12677-P01,Pré-consulaire,N'Vafere,BERETE,nvafereberete@gmail.com,1999-02-23,"ESK Abj-Cocody, Abidjan, Région Des Lagunes, Côte d'Ivoire",Université Vincennes-Saint-Denis - IUT de Tremblay,Bac +1,Bac + 1,Décision Visa Renseignée,Non autorisé,Pas demandé,2018-12-06 23:06,2018-12-06 23:06,,,
67,CI17-11834-P01,Pré-consulaire,Koffi Antoine Emmanuel Frejus,KOUAME,frekwam@gmail.com,1998-06-13,"Institut Universitaire d'Abidjan (IUA), Abidjan, Région Des Lagunes, Côte d'Ivoire",Université Picardie Jules Verne Amiens - UFR de droit et de science politique,Bac +4,Bac + 3,Décision Visa Renseignée,Non autorisé,Pas demandé,2018-04-19 23:54,2018-04-19 23:54,,,
68,CI18-07349-P01,Pré-consulaire,Fabrice Ghislain,KOUAKOU,drcherubinfabrice@gmail.com,1989-07-02,"Université Félix Houphouët-Boigny, Abidjan, Région Des Lagunes, Côte d'Ivoire",toulouse business school,Bac +8,Bac +8,Décision Visa Renseignée,Planifié,Validé,2018-06-13 00:28,2018-07-31 17:44,2018-07-31 18:56,2018-07-31 15:15,2018-08-22 18:07
69,CI18-07311-P01,Pré-consulaire,Yann Junior,IRIE,yannjunior2018@gmail.com,1999-05-28,"Collège La Colombe Koumassi, Abidjan, Région Des Lagunes, Côte d'Ivoire",ATELIER TOCQUEVILLE,Bac (terminale),Bac (terminale),Décision Visa Renseignée,Planifié,Validé,2018-05-14 14:01,2018-07-19 16:31,2018-03-08 11:56,2018-03-08 09:15,2018-08-23 13:27
70,CI17-18426-P01,Pré-consulaire,Eric,SERI,ericseri1998@gmail.com,1998-05-10,"ESTAN Yopougon, Abidjan, Région Des Lagunes, Côte d'Ivoire",Lycée polyvalent Sacré Coeur,Bac +1,Bac + 1,Décision Visa Renseignée,Planifié,Pas demandé,2018-06-13 20:14,2018-06-13 20:14,2018-06-07 13:39,2018-06-07 10:45,
71,CI17-06386-P02,Pré-consulaire,Nobout Marcel,BONY,marcelnoboutbony@yahoo.fr,1986-02-15,"UTT-LOKO, Abidjan, Région Des Lagunes, Côte d'Ivoire",Ecole nationale supérieure d'ingénieurs de Caen et centre de recherche,Bac +5,Bac + 5,Décision Visa Renseignée,Planifié,Validé,2018-04-06 13:01,2018-04-06 13:01,2018-06-15 13:10,2018-06-15 10:45,2018-06-20 16:58
72,CI15-04173-P02,Pré-consulaire,Ibrahim Kassim,DIOMANDE,diomandeibk@yahoo.fr,1992-10-09,"Université Félix Houphouët-Boigny, Abidjan, Région Des Lagunes, Côte d'Ivoire",Université de Poitiers - UFR de sciences fondamentales et appliquées - Université de Poitiers,Bac +3,Bac + 2,Décision Visa Renseignée,Non autorisé,Pas demandé,2018-05-26 00:38,2018-05-26 00:38,,,
73,CI17-14341-P01,Pré-consulaire,Soumaila,SANGARE,soumailasangare45@gmail.com,1995-01-01,"Université de Gon PELEFORO, Korhogo, Région Des Savanes, Côte d'Ivoire",Université de Montpellier - UFR de droit et science politique,Bac +3,Bac + 2,Décision Visa Renseignée,Non autorisé,Pas demandé,2018-06-13 13:45,2018-06-13 13:45,2018-06-20 10:38,,
74,CI16-17194-P01,Pré-consulaire,Mien Marie Ange,KOUAME,nemiange@yahoo.fr,1994-03-28,"Facultés Universitaires Privées D'Abidjan, Abidjan, Région Des Lagunes, Côte d'Ivoire",Ecole Supérieure d'Hôtellerie et de Tourisme,Bac +3,Bac +3,Décision Visa Renseignée,Planifié,Validé,2018-06-27 16:06,2018-06-27 16:06,2018-07-25 17:16,2018-07-25 14:30,2018-07-24 10:24
75,CI18-01125-P01,Pré-consulaire,Mariam Rockyatou,KONE,mariamkone80@gmail.com,1993-03-17,"Texas A&M Commerce, Dallas, Texas, Etats-Unis",SKEMA Business School - SKEMA Business School - Paris la Défense,Bac +3,Bac +5,Décision Visa Renseignée,Planifié,Validé,2018-06-20 18:43,2018-07-31 15:39,2018-07-31 18:56,2018-07-31 09:15,2018-08-22 18:10
76,CI17-20858-P01,Pré-consulaire,Beh Victor,TUO,tbehvictor@gmail.com,1990-07-15,"Université Félix Houphouët-Boigny, Abidjan, Région Des Lagunes, Côte d'Ivoire",,Bac +5,,Décision Visa Renseignée,Non autorisé,Pas demandé,2018-06-14 14:29,2018-06-26 10:15,2018-06-26 10:20,,
77,CI17-02412-P01,Pré-consulaire,Kablan Paul Xavier,ADOU,paulxavieradou@gmail.com,1995-12-27,"Université de Nangui Abrogoua, Abidjan, Région Des Lagunes, Côte d'Ivoire",Université de Strasbourg - Ecole et observatoire des sciences de la Terre de Strasbourg,Bac +5,Bac + 4,Décision Visa Renseignée,Non autorisé,Pas demandé,2018-07-06 16:00,2018-07-06 16:00,,,
78,CI17-04199-P01,Pré-consulaire,Wassa,KONE,konewassa21@gmail.com,1991-04-03,"Université Alassane OUATTARA, Bouaké, Région De La Vallée Du Bandama, Côte d'Ivoire",,Bac +4,,Décision Visa Renseignée,Non autorisé,Pas demandé,2018-06-29 17:07,2018-06-29 17:07,2018-12-07 17:00,,
79,CI17-11987-P01,Pré-consulaire,Galass,NDOUR,doufa100@gmail.com,1992-12-14,"Ecole Nationale Sup. de Statistiques et d'Economie Appliquée (ENSEA), Abidjan, Région Des Lagunes, Côte d'Ivoire",Université Bretagne-Sud - Faculté des sciences et sciences de l'ingénieur,Bac +4,Bac + 4,Décision Visa Renseignée,Non autorisé,Pas demandé,2018-02-07 16:12,2018-02-07 16:12,,,
80,CI17-22162-P01,Pré-consulaire,Ayo Désirée,KOMENAN,ayokomenan@gmail.com,2000-05-24,"Lycée Mamie Fêtai Bingerville, Bingerville, Région Des Lagunes, Côte d'Ivoire",Université de Perpignan Via Domitia - UFR des Sciences Juridiques et Economiques (SJE),Bac (terminale),Bac + 1,Instruction SCAC terminée,Non autorisé,Pas demandé,2018-08-06 09:51,2018-08-06 09:51,,,
81,CI16-16288-P01,Pré-consulaire,Lauraine Aimee Desiree,HOURAGA,houraga1@gmail.com,1997-06-25,"Université Félix Houphouët-Boigny, Abidjan, Région Des Lagunes, Côte d'Ivoire",Université d'Evry-Val-d'Essonne - UFR de sciences fondamentales et appliquées,Bac +2,Bac + 3,Instruction SCAC terminée,Non autorisé,Pas demandé,2018-04-07 10:53,2018-09-07 16:26,2018-09-07 16:26,,
82,CI18-07263-P01,Pré-consulaire,Djibril,SAKHO,djibril.abdou.sakho@gmail.com,1993-01-13,"Université International d'Agadir, Agadir, Sous Massa Dra, Maroc",Université Clermont Auvergne - Ecole d'économie,Bac +5,Bac + 4,Décision Visa Renseignée,Planifié,Validé,2018-05-26 13:07,2018-05-07 12:37,2018-07-25 18:10,2018-07-25 15:15,2018-07-26 09:58
83,CI16-04005-P01,Pré-consulaire,Kouassi Ezechiel Aimé,ALLA,ezechiel1994@live.fr,1994-12-05,"Université Alassane OUATTARA, Bouaké, Région De La Vallée Du Bandama, Côte d'Ivoire",Université de Montpellier - UFR de droit et science politique,Bac +5,Bac + 2,Décision Visa Renseignée,Non autorisé,Pas demandé,2018-06-26 14:34,2018-06-26 14:34,2018-05-07 11:42,,
84,CI17-15247-P01,Pré-consulaire,Pierrick Gwenaël,MBOUKOU,pierrick.mboukou@yahoo.fr,1994-12-02,"Ecole Nationale Sup. de Statistiques et d'Economie Appliquée (ENSEA), Abidjan, Région Des Lagunes, Côte d'Ivoire",Université Bretagne-Sud - Faculté des sciences et sciences de l'ingénieur,Bac +4,Bac + 4,Décision Visa Renseignée,Non autorisé,Pas demandé,2018-06-29 11:04,2018-06-29 11:04,2018-07-16 12:52,,
85,CI18-00502-P01,Pré-consulaire,Sopie Aude Mirielle,N'DEY,maloun1986@yahoo.fr,1999-10-22,"Ecole supérieure d'Architecture Abidjan, Abidjan, Région Des Lagunes, Côte d'Ivoire",Cours BESSIL,Bac +1,Bac +3,Décision Visa Renseignée,Planifié,Validé,2018-05-22 14:44,2018-12-07 03:06,2018-02-08 11:54,2018-02-08 09:15,2018-08-23 13:14
86,CI17-15241-P01,Pré-consulaire,Mablagué Moussa,BRAHIM,ibrahimmablague@gmail.com,1992-11-07,"Ecole Nationale Sup. de Statistiques et d'Economie Appliquée (ENSEA), Abidjan, Région Des Lagunes, Côte d'Ivoire",Université Bretagne-Sud - Faculté des sciences et sciences de l'ingénieur,Bac +4,Bac + 3,Instruction SCAC terminée,Non autorisé,Pas demandé,2018-01-07 03:49,2018-01-07 03:49,2018-07-25 12:41,,
87,CI17-17018-P01,Pré-consulaire,Bénié Sylviane,AKA,sylvianeaka1@gmail.com,1997-03-18,"Université Félix Houphouët-Boigny, Abidjan, Région Des Lagunes, Côte d'Ivoire",Université d'Orléans - Collegium lettres langues et sciences humaines,Bac +2,Bac + 1,Décision Visa Renseignée,Non autorisé,Pas demandé,2018-05-27 22:19,2018-05-27 22:19,,,
88,CI16-15388-P01,Pré-consulaire,Amandine Sidonie,BEDA,amadabeda94@gmail.com,1994-07-06,"Université de Nangui Abrogoua, Abidjan, Région Des Lagunes, Côte d'Ivoire",EDC Paris Business School,Bac +5,Bac +5,Décision Visa Renseignée,Planifié,Validé,2018-04-07 18:06,2018-07-19 18:17,2018-07-24 17:38,2018-07-24 14:30,2018-07-23 11:11
89,CI17-18820-P01,Pré-consulaire,Anaelle Coralie,AKRE,leila.akre@gmail.com,1998-09-08,"Institut Universitaire d'Abidjan (IUA), Abidjan, Région Des Lagunes, Côte d'Ivoire",Université de La Rochelle - UFR sciences fondamentales et sciences pour l'ingénieur - Université de La Rochelle,Bac +3,Bac + 2,Décision Visa Renseignée,Non autorisé,Pas demandé,2018-06-23 13:01,2018-06-23 13:01,2018-11-07 13:12,,
90,CI15-02343-P01,Pré-consulaire,Yasmine Lakia Mahoussa,TOURE,ytour60@gmail.com,1997-01-17,"AGITEL Formation Abj-Cocody, Abidjan, Région Des Lagunes, Côte d'Ivoire",Ecole de Management de Normandie,Bac +3,Bac + 4,En saisie étudiant,Non autorisé,Pas demandé,2018-06-07 01:18,2018-06-07 01:18,,,
91,CI18-08337-P01,Pré-consulaire,Habiba Yeli,GANON,habibafatima567@gmail.com,2000-12-12,"Groupe Scolaire la Farandole 2 Plateaux, Abidjan, Région Des Lagunes, Côte d'Ivoire",Université de Rennes 2 (Rennes) - Administration économique et sociale  (site de Rennes),Bac (terminale),Bac (terminale),Décision Visa Renseignée,Non autorisé,Pas demandé,2018-06-07 13:19,2018-06-07 13:19,2018-10-07 11:55,,
92,CI16-06392-P03,Pré-consulaire,Gouda Arnaud,BAILLY,arnoldbailly@yahoo.fr,1987-02-13,"Université Félix Houphouët-Boigny, Abidjan, Région Des Lagunes, Côte d'Ivoire",Université de technologie de Troyes,Bac +5,Bac + 5,Décision Visa Renseignée,Planifié,Validé,2018-08-06 13:51,2018-08-06 13:51,2018-07-17 14:11,2018-07-17 10:45,2018-03-07 10:07
93,CI17-15845-P01,Pré-consulaire,Karidja,KONATE,karidja.k92@gmail.com,1992-07-19,"Cours Secondaire Protestant Yopougon Kouté, Abidjan, Région Des Lagunes, Côte d'Ivoire",Lycée polyvalent Vauban,Bac (terminale),,Instruction SCAC terminée,Planifié,Pas demandé,2018-09-07 14:07,2018-03-08 13:15,2018-08-30 11:59,2018-07-24 13:45,
94,CI18-04495-P01,Pré-consulaire,Césaire Regis,ESSIS,regisessis@gmail.com,1993-09-02,"Université Félix Houphouët-Boigny, Abidjan, Région Des Lagunes, Côte d'Ivoire",IEMI/CMH,Bac +4,Bac +5,Décision Visa Renseignée,Planifié,Validé,2018-06-28 14:08,2018-06-28 14:08,2018-07-20 10:05,2018-07-19 10:00,2018-07-20 11:37
95,CI18-08561-P01,Pré-consulaire,Jean Bertrand,AHUE,jeanbertrandahue@gmail.com,1995-05-13,"Université Félix Houphouët-Boigny, Abidjan, Région Des Lagunes, Côte d'Ivoire",,Bac +3,Bac +6,En saisie étudiant,Non autorisé,Pas demandé,,,,,
96,CI17-18795-P01,Pré-consulaire,Aude-Emmanuelle,AMAN,aaudeemmanuelle@gmail.com,2000-03-10,"Lycée International Jean-Mermoz Cocody, Abidjan, Région Des Lagunes, Côte d'Ivoire",Université Panthéon-Assas - UFR sciences économiques et de gestion (centre Vaugirard),Bac (terminale),Bac + 1,Décision Visa Renseignée,Non autorisé,Pas demandé,2018-06-28 14:23,2018-07-13 18:23,2018-07-13 18:26,,
97,CI17-22087-P02,Pré-consulaire,Maoca,KABRAN,maocakbn@gmail.com,1994-09-22,"Université Félix Houphouët-Boigny, Abidjan, Région Des Lagunes, Côte d'Ivoire",Groupe ESC Pau,Bac +3,Bac +4,Décision Visa Renseignée,Planifié,Validé,2018-12-07 00:02,2018-07-17 18:07,2018-07-17 18:12,2018-07-17 13:45,2018-07-18 10:43
98,CI18-07122-P01,Pré-consulaire,Kayi Akpédjé Pauline,KUEVIAKOE,paulinekueviakoe@gmail.com,1992-12-04,"LOME BUSINESS SCHOOL, Lomé, Lomé, Togo",SKEMA Business School - SKEMA Business School - Paris la Défense,Bac +5,Bac + 6,En saisie étudiant,Non autorisé,Pas demandé,2018-06-18 17:01,2018-02-07 14:39,,,
99,CI17-07638-P01,Pré-consulaire,Ake Pierre,SIKA,sikake2007@yahoo.fr,1981-12-20,"PIGIER Abj-Plateau, Abidjan, Région Des Lagunes, Côte d'Ivoire",ICS Bégué,Bac +2,,Instruction SCAC terminée,Planifié,Validé,2018-09-07 19:09,2018-08-14 14:38,2018-08-31 12:34,2018-08-31 10:00,2018-08-31 10:01
100,CI16-09229-P02,Pré-consulaire,Anoh Audrey Laetitia,KPANGNI,anohaudrey81@gmail.com,1995-11-10,"Université de Nangui Abrogoua, Abidjan, Région Des Lagunes, Côte d'Ivoire",Université de Lorraine - Faculté des Sciences et Technologies,Bac +4,Bac + 4,Décision Visa Renseignée,Non autorisé,Pas demandé,2018-12-07 12:03,2018-12-07 12:03,,,
101,CI17-05643-P01,Pré-consulaire,Fofana,MAMADY,fofanamamady33@gmail.com,1996-11-22,"Université Félix Houphouët-Boigny, Abidjan, Région Des Lagunes, Côte d'Ivoire",Université de La Rochelle - UFR sciences fondamentales et sciences pour l'ingénieur - Université de La Rochelle,Bac +4,Bac + 2,Décision Visa Renseignée,Non autorisé,Pas demandé,2018-11-07 10:42,2018-11-07 10:42,2018-07-20 19:07,,
102,CI15-01289-P01,Pré-consulaire,Leslie Linda,LOROU,leslielindalorou@yahoo.fr,1996-08-26,"Institut Universitaire d'Abidjan (IUA), Abidjan, Région Des Lagunes, Côte d'Ivoire",Université de Lorraine - UFR Droit Economie Administration,Bac +3,Bac + 2,Décision Visa Renseignée,Non autorisé,Pas demandé,2018-06-29 00:48,2018-06-29 00:48,2018-07-13 17:56,,
103,CI17-13276-P01,Pré-consulaire,Gnintcho Raoul,KONE,lephilosopheroi6@gmail.com,1990-10-28,"Université Félix Houphouët-Boigny, Abidjan, Région Des Lagunes, Côte d'Ivoire",,Bac +5,,Décision Visa Renseignée,Non autorisé,Pas demandé,2018-11-04 11:08,2018-06-27 18:46,2018-07-16 13:24,,
104,CI17-12057-P01,Pré-consulaire,Jean Michel,KAFFE,jeanmichelkaffe@yahoo.fr,1997-10-05,"Université Catholique d'Afrique de l'Ouest, Abidjan, Région Des Lagunes, Côte d'Ivoire",Université de Nantes - UFR de droit et des sciences politiques,Bac +3,Bac + 3,Décision Visa Renseignée,Non autorisé,Pas demandé,2018-12-06 22:08,2018-07-24 17:41,2018-07-24 17:42,,
105,CI18-08370-P01,Pré-consulaire,Rami,DOUMBIA,ramidoumbia2@gmail.com,1999-12-25,"école internationale Jules verne, Abidjan, Région Des Lagunes, Côte d'Ivoire",SKEMA Business School - SKEMA Business School - Sophia Antipolis,Bac (terminale),Bac +1,Décision Visa Renseignée,Non autorisé,Pas demandé,2018-12-07 20:57,2018-07-16 11:37,2018-07-16 11:38,,
106,CI16-01882-P02,Pré-consulaire,Wilfried Kevin Arnold,PARE,kevinarnoldpare@yahoo.fr,1995-03-28,"Université Félix Houphouët-Boigny, Abidjan, Région Des Lagunes, Côte d'Ivoire",Université Rennes 2 - UFR Sciences Sociales,Bac +5,Bac + 4,Décision Visa Renseignée,Non autorisé,Pas demandé,2018-03-06 17:00,2018-08-13 17:16,2018-08-13 17:21,,
107,CI18-03917-P01,Pré-consulaire,Landry-Christopher,BROU,broulandrychristopher@gmail.com,1996-08-05,"Centre de Preparation Aux Diplomes D'expertise Comptable (CPDEC), Abidjan, Région Des Lagunes, Côte d'Ivoire",Conservatoire national des arts et métiers - Institut national des techniques économiques et comptables CNAM,Bac +3,,Décision Visa Renseignée,Planifié,Validé,2018-07-06 15:44,2018-07-30 16:57,2018-07-31 12:23,2018-07-30 13:45,2018-08-22 17:37
108,CI15-03275-P01,Pré-consulaire,Salimatou Tresor,DAOU,angetresormaliny@gmail.com,1993-01-14,"Groupe CSI pôle polytechnique, Abidjan, Région Des Lagunes, Côte d'Ivoire",ENSSIG,Bac +4,Bac +4,Décision Visa Renseignée,Planifié,Validé,2018-03-24 13:53,2018-02-08 12:28,2018-02-08 12:34,2018-02-08 10:00,2018-08-23 13:29
109,CI16-16004-P01,Pré-consulaire,Ousmane Lavoisier,DIABAGATE,ousmanedlavoisier@gmail.com,1993-01-01,"EAMAU (Ecole Africaine des Métiers de l'Architecture et de l'Urbanisme), Lomé, Region maritime, Togo",Université de Versailles Saint-Quentin-en-Yvelines - UFR des sciences sociales,Bac +5,Bac +5,En saisie étudiant,Non autorisé,Pas demandé,2018-11-07 18:52,2018-11-07 18:52,,,
110,CI17-22008-P02,Pré-consulaire,Nasseninba,DIABY,sanidiaby@gmail.com,1998-08-18,"Collège William Ponty Selmer Yopougon, Abidjan, Région Des Lagunes, Côte d'Ivoire",Esam,Bac (terminale),Bac (terminale),Décision Visa Renseignée,Planifié,Validé,2018-07-17 15:27,2018-07-17 15:27,2018-08-08 13:53,2018-06-08 10:00,2018-08-23 12:03
111,CI17-16973-P01,Pré-consulaire,Lamine,SANOGO,sanogolam225@gmail.com,1996-01-01,"Université Félix Houphouët-Boigny, Abidjan, Région Des Lagunes, Côte d'Ivoire",,Bac +1,,Décision Visa Renseignée,Non autorisé,Pas demandé,2018-12-03 22:55,2018-12-03 22:55,,,
112,CI16-04479-P01,Pré-consulaire,Fatah,SIDIBE,fatahsidibe@gmail.com,1989-01-04,"Wisconsin University College, Accra, Accra, Ghana",EDC Paris Business School,Bac +3,Bac +4,Instruction SCAC terminée,Planifié,Validé,2018-07-19 00:39,2018-09-14 14:13,2018-09-20 16:41,2018-09-20 13:45,2018-09-20 11:01
113,CI17-23216-P01,Pré-consulaire,Zalika,DEMBELE,zalikadembele99@gmail.com,1999-06-03,"Université Alassane OUATTARA, Bouaké, Région De La Vallée Du Bandama, Côte d'Ivoire",SUP' DE COM école supérieure de communication,Bac +2,Bac (terminale),Décision Visa Renseignée,Planifié,Pas demandé,2018-12-07 02:59,2018-12-07 02:59,2018-07-24 14:17,2018-07-30 15:15,
114,CI18-07730-P01,Pré-consulaire,Yao Alain,KOUAME,kouamealain03@gmail.com,1992-08-22,"Université de Gon PELEFORO, Korhogo, Région Des Savanes, Côte d'Ivoire",Montpellier SupAgro - Institut national d'études supérieures agronomiques de Montpellier,Bac +3,Bac + 3,Décision Visa Renseignée,Planifié,Validé,2018-12-07 14:03,2018-07-31 22:47,2018-01-08 16:06,2018-01-08 08:30,2018-08-22 18:10
115,CI18-08500-P01,Pré-consulaire,Abdel-Rahmane Thierno Djibril,SARR,sarrthierno123456@gmail.com,2000-06-15,"Maurice Delafosse, Abidjan, Région Des Lagunes, Côte d'Ivoire",Université Paul Valéry Montpellier 3 - Antenne de Béziers,Bac (terminale),Bac (terminale),Décision Visa Renseignée,Non autorisé,Pas demandé,2018-10-07 02:50,2018-10-07 02:50,2018-10-07 18:49,,
116,CI17-05232-P02,Pré-consulaire,Cynthia Reine Claude,ATSE,atse83@yahoo.com,1983-04-16,"Université Félix Houphouët-Boigny, Abidjan, Région Des Lagunes, Côte d'Ivoire",ESC Amiens,Bac +4,Bac +5,Décision Visa Renseignée,Planifié,Validé,2018-07-20 12:43,2018-07-20 12:43,2018-01-08 15:46,2018-01-08 09:15,2018-08-23 13:28
117,CI17-14836-P01,Pré-consulaire,Francoise Audrey,BOUAKY,audrey.bouaky@gmail.com,1996-10-04,"Institut Supérieur de Commerce et d'Administration des Entreprises (ISCAE), Yamoussoukro, Région Des Lacs, Côte d'Ivoire",cours Diderot,Bac +3,Bac +1,Décision Visa Renseignée,Planifié,Validé,2018-07-20 01:36,2018-08-28 15:04,2018-04-09 12:13,2018-04-09 09:15,2018-04-09 10:01
118,CI17-16114-P01,Pré-consulaire,Jean Max Ettien,N'GUESSAN,kdiojeanmax2@gmail.com,1999-10-27,"ESTTA LOKO Abj-Plateau, Abidjan, Région Des Lagunes, Côte d'Ivoire",Lycée Saint-Rémi,Bac +1,Bac + 1,Décision Visa Renseignée,Planifié,Pas demandé,2018-07-17 14:38,2018-07-30 18:31,2018-02-08 16:24,2018-02-08 13:45,
119,CI17-07539-P01,Pré-consulaire,Badia Eric Yecoulatoh Delaure,GBEHI,gbehibadia@gmail.com,1993-06-01,"INP-HB, Yamoussoukro, Région Des Lacs, Côte d'Ivoire",EDHEC - EDHEC Business School,Bac +3,Bac + 4,Instruction SCAC terminée,Planifié,Validé,2018-06-19 02:19,2018-07-19 01:57,2018-07-27 13:40,2018-07-19 13:00,2018-11-07 10:34
120,CI18-07586-P01,Pré-consulaire,Affouet Pulcherie,BROU,pulcheriebrou@gmail.com,1996-12-14,"Université Alassane OUATTARA, Bouaké, Région De La Vallée Du Bandama, Côte d'Ivoire","Université de La Rochelle - UFR Lettres, langues, arts et sciences humaines - Université de La Rochelle",Bac +3,Bac + 3,Soumis,Non autorisé,Pas demandé,2018-06-29 18:59,2018-07-31 12:53,,,
121,CI17-19537-P01,Pré-consulaire,Sadoumou Kouame Yann Emmanuel,N'GUETTA,nguetta58@gmail.com,2000-07-07,"Lycée Classique Abidjan, Abidjan, Région Des Lagunes, Côte d'Ivoire",Université Picardie Jules Verne Amiens - IUT de l'Aisne,Bac (terminale),Bac + 1,Instruction SCAC terminée,Non autorisé,Pas demandé,2018-02-06 15:26,2018-02-06 15:26,,,
122,CI16-09426-P02,Pré-consulaire,Houlaille Paul-Eugène Cédric,DOHO,dohopaulcedric@gmail.com,1991-12-23,"Facultés Universitaires Privées D'Abidjan, Abidjan, Région Des Lagunes, Côte d'Ivoire","INSEEC Business School - Programme Grande Ecole (Paris, Bordeaux, Chambéry, Lyon) - Inseec Business School - groupe INSEEC",Bac +4,,Instruction SCAC terminée,Non autorisé,Pas demandé,2018-07-14 20:57,2018-07-23 16:30,2018-07-25 16:54,,
123,CI17-21212-P01,Pré-consulaire,Konan Serge Antoine,N'DRI,sergendri@hotmail.fr,1991-09-04,"Université de Jean Lorougnon GUEDE, Daloa, Région Du Haut-Sassandra, Côte d'Ivoire","Université Panthéon-Assas - UFR droit, économie, gestion (cycle licence) - Centre Melun",Bac +4,Bac + 3,Instruction SCAC terminée,Planifié,Validé,2018-06-26 23:57,2018-09-08 01:51,2018-08-13 17:17,2018-08-13 15:15,2018-08-13 17:25
124,CI18-08096-P01,Pré-consulaire,Kouyo Franck Michaël,DATIE,princefranckmichael@gmail.com,1991-04-13,"Aist-Plateau ( Académique Internationale des Sciences et Techniques ), Abidjan, Région Des Lagunes, Côte d'Ivoire",Institut des techniques informatiques et commerciales,Bac +2,Bac +2,Décision Visa Renseignée,Planifié,Validé,2018-07-24 22:03,2018-03-08 16:52,2018-08-24 12:41,2018-08-24 10:00,2018-08-27 10:26
125,CI17-10640-P01,Pré-consulaire,N'Guessan Aristide Joël,KOUAO,aristidekouao47@gmail.com,1994-08-31,"PIGIER Abj-Plateau, Abidjan, Région Des Lagunes, Côte d'Ivoire",MSC MBA INSEEC,Bac +4,Bac +4,Décision Visa Renseignée,Planifié,Validé,2018-07-19 16:32,2018-08-24 14:45,2018-08-29 17:37,2018-08-29 15:15,2018-08-30 11:03
126,CI16-08574-P01,Pré-consulaire,Sindou Siby,DIOMANDE,sindoudiomande225@gmail.com,1991-05-05,"Université de Gon PELEFORO, Korhogo, Région Des Savanes, Côte d'Ivoire","Université Paris 13 - UFR de droit, sciences politiques et sociales",Bac +4,Bac + 4,Décision Visa Renseignée,Non autorisé,Pas demandé,2018-05-26 07:43,2018-05-26 07:43,,,
127,CI17-03553-P01,Pré-consulaire,Haman Annick Carole,ANZOUA,annickcarole94@gmail.com,1994-02-12,"Université Félix Houphouët-Boigny, Abidjan, Région Des Lagunes, Côte d'Ivoire",Ecole supérieure de journalisme,Bac +2,Bac +2,Décision Visa Renseignée,Planifié,Validé,2018-07-26 21:19,2018-08-30 14:38,2018-08-31 11:19,2018-08-31 08:30,2018-08-27 10:00
128,CI18-08392-P01,Pré-consulaire,Adama,FOFANA,fofanaadama388@gmail.com,1995-08-26,"INP-HB, Yamoussoukro, Région Des Lacs, Côte d'Ivoire",Université de Lorraine - Ecole nationale supérieure de géologie - Site de Vandoeuvre-lès-Nancy,Bac +4,Bac +5,Décision Visa Renseignée,Planifié,Validé,2018-12-07 19:44,2018-07-27 18:40,2018-02-08 12:46,2018-02-08 10:00,2018-08-23 13:18
129,CI18-00650-P01,Pré-consulaire,Ahou Mariette Flora,KONAN,chouflora01@gmail.com,1986-12-03,"PIGIER Abj-Plateau, Abidjan, Région Des Lagunes, Côte d'Ivoire",European School of Advanced Management,Bac +5,Bac +4,Décision Visa Renseignée,Planifié,Validé,2018-07-15 19:14,2018-07-30 12:52,2018-08-17 12:49,2018-08-17 10:00,2018-08-27 18:20
130,CI18-08539-P01,Pré-consulaire,Kouame Marcel,OUATTARA,marcelkouame59@gmail.com,1997-03-10,"faculte privee de droit de gestion ibn khaldoun, tunis, province, Tunisie",université Lumière Lyon 2,Bac +1,Bac +1,En saisie étudiant,Non autorisé,Pas demandé,2018-07-24 12:16,2018-03-08 12:15,,,
131,CI16-18836-P01,Pré-consulaire,Mamadou Nassirou,SOW,nassirousow4@gmail.com,1996-12-08,"École Supérieur de Technologie, Abidjan, Région Des Lagunes, Côte d'Ivoire",ECOLE DE COMMERCE DE LYON,Bac +1,Bac +1,Décision Visa Renseignée,Planifié,Pas demandé,2018-07-23 16:40,2018-06-08 12:55,2018-09-13 19:11,2018-09-13 09:15,
132,CI16-01303-P01,Pré-consulaire,Lancine,SANGARE,sangarelancine@outlook.fr,1990-12-20,"Université Félix Houphouët-Boigny, Abidjan, Région Des Lagunes, Côte d'Ivoire",ESLSCA Business School,Bac +4,Bac +5,Décision Visa Renseignée,Planifié,Pas demandé,2018-07-20 18:23,2018-07-20 18:23,2018-06-08 17:04,2018-06-08 15:15,
133,CI18-08873-P01,Pré-consulaire,Terroux Franck Emmanuel,SEA,sea_franck@yahoo.com,2000-05-09,"Ecole Internationale Jules Verne, Abidjan, Région Des Lagunes, Côte d'Ivoire",Université de Nîmes - Département de sciences et arts,Bac (terminale),Bac + 1,Décision Visa Renseignée,Non autorisé,Pas demandé,2018-07-22 23:48,2018-07-22 23:48,2018-05-08 09:36,,
134,CI18-09208-P01,Pré-consulaire,Daouda Ismael Fidele,AMOURLAYE,ismaelfidele.daouda@gmail.com,1984-04-01,"Ghana Technology University College, Accra, GREATER-ACCRA, Ghana",I'institut de Théologie Biblique (ITB),Bac +4,Bac +1,Décision Visa Renseignée,Planifié,Validé,2018-07-08 02:12,2018-09-21 18:44,2018-09-25 10:59,2018-09-25 08:30,2018-09-19 10:28
135,CI18-08807-P01,Pré-consulaire,Koffi Edouard,NOUWADJRO,knouwadjro@gmail.com,1990-01-05,"INSTEC Abj-Treichville, Abidjan, Région Des Lagunes, Côte d'Ivoire",Montpellier Business School-groupe sup de co Montpellier,Bac +3,Bac +4,Décision Visa Renseignée,Planifié,Validé,2018-06-08 21:24,2018-07-08 14:56,2018-08-16 11:09,2018-08-16 08:30,2018-08-16 11:34
136,CI18-01188-P01,Pré-consulaire,Gnonsian Ange Emmanuel,ZAHO,zahoange01@gmail.com,2001-10-03,"Collège Le Figuier, Abidjan, Région Des Lagunes, Côte d'Ivoire",Cours Diderot,Bac (terminale),Bac +1,Décision Visa Renseignée,Non autorisé,Pas demandé,2018-07-27 17:26,2018-07-09 17:37,2018-07-09 17:38,,
137,CI17-17409-P01,Pré-consulaire,Keassemou Manasse,GUEI,keassemou003@gmail.com,1997-01-17,"CIFAD/ABIDJAN, Abidjan, Région Des Lagunes, Côte d'Ivoire",Esic,Bac +2,Bac +1,Décision Visa Renseignée,Planifié,Validé,2018-07-14 09:19,2018-07-24 11:29,2018-08-16 14:13,2018-08-16 10:45,2018-08-27 18:13
138,CI18-08858-P01,Pré-consulaire,Diome Carene Stephanie,KOUAME,diomecarene@gmail.com,1994-06-19,"Université Internationale de Grand-Bassam, Grand-Bassam, Région Du Sud-Comoé, Côte d'Ivoire",Groupe ESC Clermont,Bac +4,Bac +4,Instruction SCAC terminée,Planifié,Validé,2018-07-27 19:46,2018-08-20 16:52,2018-08-23 18:52,2018-08-20 08:30,2018-08-27 10:49
139,CI18-09186-P01,Pré-consulaire,Kys Dechi Joel Landrix,KOUASSI,joellandrix@outlook.fr,1990-01-05,"Institut Sup. des Arts et de l'Action Culturelle (INSAAC), Abidjan, Région Des Lagunes, Côte d'Ivoire",ILEC - Institut libre d'études commerciales Nice,Bac +1,Bac + 1,Instruction SCAC terminée,Planifié,Validé,2018-08-29 18:05,2018-10-18 14:51,2018-11-23 10:58,2018-11-23 08:30,2018-11-26 10:55
140,CI18-07657-P01,Pré-consulaire,Elliane,DESSI,elianedessi@gmail.com,1986-06-24,"Cours Castaing, Abidjan, region des lagunes, République démocratique du Congo",Cours Diderot,,Bac + 1,En saisie étudiant,Non autorisé,Pas demandé,,,,,
141,CI16-07320-P02,Pré-consulaire,Benié Michaël Cyrille,KRI BI KOFFI,kbkbmc@yahoo.fr,1982-10-19,"Institut de Formation Sainte Marie (IFSM), Abidjan, Région Des Lagunes, Côte d'Ivoire",Paris ESLSCA Business School,Bac +5,,Décision Visa Renseignée,Planifié,Validé,2018-08-08 20:59,2018-10-09 18:21,2018-10-09 19:10,2018-10-09 16:00,2018-10-09 10:59
142,CI18-08008-P01,Pré-consulaire,Aicha,DIBOUSSE,adibousse1@gmail.com,2000-02-26,"Institut Universitaire d'Abidjan (IUA), Abidjan, Région Des Lagunes, Côte d'Ivoire",Ipac Factory Bachelor,Bac +1,Bac +1,Décision Visa Renseignée,Planifié,Validé,2018-07-18 01:18,2018-08-08 21:22,2018-09-08 11:15,2018-08-08 10:45,2018-08-23 11:51
143,CI18-08441-P01,Pré-consulaire,Wakem Jasmine Sarah,MBOUGUENG,twilightsparkle1789@gmail.com,2000-09-13,"Groupe Scolaire la Farandole 2 Plateaux, Abidjan, Région Des Lagunes, Côte d'Ivoire",Université Paris-Sud - UFR droit économie gestion,Bac (terminale),Bac + 1,Décision Visa Renseignée,Non autorisé,Pas demandé,2018-09-08 18:14,2018-09-08 18:14,2018-08-16 12:25,,
144,CI18-09263-P01,Pré-consulaire,Alley Ahmed Aly,GBANE,coulibalynafi10@gmail.com,1997-05-10,"AGITEL Formation Abj-Cocody, Abidjan, Région Des Lagunes, Côte d'Ivoire",École supérieure des technologies de l’information appliquées aux métiers,Bac +2,Bac +1,Décision Visa Renseignée,Planifié,Validé,2018-10-08 00:55,2018-10-08 00:55,2018-08-22 17:10,2018-08-22 14:30,2018-08-27 10:50
145,CI18-03569-P01,Pré-consulaire,Serge Patrick-Adam,YAO,jrpatrickevans@gmail.com,2000-03-04,"Lycée Classique Abidjan, Abidjan, Région Des Lagunes, Côte d'Ivoire",Institut de recherche et d'action commerciale,Bac (terminale),,Instruction SCAC terminée,Planifié,Validé,2018-07-18 12:47,2018-08-30 17:12,2018-08-31 11:37,2018-08-16 09:15,2018-08-23 11:38
146,CI18-09014-P01,Pré-consulaire,Nomel Akpa Guy,DADE,guydade@gmail.com,1995-07-05,"INPHB-CPDEC, Abidjan, Région Des Lagunes, Côte d'Ivoire",Conservatoire national des arts et métiers - Institut national des techniques économiques et comptables CNAM,Bac +3,Bac +4,En saisie étudiant,Non autorisé,Pas demandé,2018-07-31 19:10,2018-08-20 00:32,,,
147,CI18-05651-P01,Pré-consulaire,Emmanuel Néhémie Marcellin,YAO,nehm33@gmail.com,2001-03-03,"INP-HB, Yamoussoukro, Région Des Lacs, Côte d'Ivoire","Grenoble INP - Ecole nationale supérieure de physique, électronique, matériaux - Grenoble INP",Bac +2,Bac +3,Instruction SCAC terminée,Non autorisé,Pas demandé,2018-08-14 01:04,2018-08-14 01:04,2018-08-21 14:08,,
148,CI17-16214-P02,Pré-consulaire,N'Daya Colombe,GNANGORAN,ndayacolombe@gmail.com,1988-09-08,"Collège Sainte Foi ABOBO I, Abidjan, Région Des Lagunes, Côte d'Ivoire",Institut supérieur de gestion,Bac +5,Bac +5,Instruction SCAC terminée,Planifié,Validé,2018-03-08 00:18,2018-08-21 09:37,2018-08-28 12:43,2018-08-28 10:00,2018-08-27 10:08
149,CI16-08267-P01,Pré-consulaire,Abdul Kalil,DIOMANDE,k.diomandebac@gmail.com,1996-09-13,"SUP'ELITE Abj-Cocody, Abidjan, Région Des Lagunes, Côte d'Ivoire",FORMACTION INSTITUT,Bac +3,Bac +3,Instruction SCAC terminée,Planifié,Validé,2018-08-17 15:58,2018-08-23 19:13,2018-07-09 13:46,2018-07-09 10:45,2018-04-09 10:08
150,CI17-09549-P02,Pré-consulaire,Sunday Denis,ADENLE,adenledenis@yahoo.fr,1990-01-28,"Université Méthodiste de Côte d'Ivoire, Abidjan, Région Des Lagunes, Côte d'Ivoire",Université Panthéon Assas Paris 2,Bac +5,Bac +5,Instruction SCAC terminée,Planifié,Validé,2018-08-13 19:42,2018-02-10 10:32,2018-04-10 12:36,2018-04-10 10:00,2018-04-10 10:17
151,CI18-09520-P01,Pré-consulaire,Kouakou Prosper Stephane,KOUASSI,kouassistephane997@gmail.com,1997-12-26,"Université Catholique d'Afrique de l'Ouest, Abidjan, Région Des Lagunes, Côte d'Ivoire",Montpellier Business School - groupe sup de co Montpellier,Bac +2,Bac + 2,Instruction SCAC terminée,Planifié,Validé,2018-12-08 12:59,2018-12-08 12:59,2018-08-23 11:05,2018-08-23 08:30,2018-08-27 11:41
152,CI17-14154-P01,Pré-consulaire,Kady Noura Colombe,DIARRA,nouracolombe@gmail.com,1997-03-30,"Université Félix Houphouët-Boigny, Abidjan, Région Des Lagunes, Côte d'Ivoire",Université Bordeaux Montaigne - UFR langues et civilisations,Bac +1,Bac + 2,Décision Visa Renseignée,Non autorisé,Pas demandé,2018-09-07 12:16,2018-09-07 12:16,,,
153,CI17-15628-P01,Pré-consulaire,Koffi Serge,N'GUESSAN,soni2recto@yahoo.fr,1996-04-05,"Université Catholique d'Afrique de l'Ouest, Abidjan, Région Des Lagunes, Côte d'Ivoire",Université de La Réunion - UFR Lettres et sciences humaines,Bac +4,Bac + 4,Décision Visa Renseignée,Non autorisé,Pas demandé,2018-04-07 13:09,2018-04-07 13:09,,,
154,CI18-09261-P01,Pré-consulaire,Kinatahagui Zeinab,SORO,zeinabsoro18@gmail.com,1999-10-10,"Groupe Scolaire Nanti Abobo, Abidjan, Région Des Lagunes, Côte d'Ivoire",Cours Diderot,Bac (terminale),Bac +1,Décision Visa Renseignée,Planifié,Validé,2018-06-08 15:42,2018-08-31 15:26,2018-05-09 17:42,2018-05-09 15:15,2018-06-09 11:04
155,CI18-06963-P01,Pré-consulaire,Amenan Verlene,WENDE,wendeamenan@gmail.com,1992-12-16,"Académie regionales des sciences et techniques de la mer, Abidjan, Région Des Lagunes, Côte d'Ivoire",Ecole de Management de Normandie,Bac +4,,Décision Visa Renseignée,Planifié,Validé,2018-08-27 22:48,2018-12-09 18:49,2018-12-09 18:59,2018-12-09 09:15,2018-11-09 10:18
156,CI18-04908-P01,Pré-consulaire,Konan Ange David,KOFFI,ange_davidkoffi@outlook.fr,1998-06-24,"Institut Universitaire d'Abidjan (IUA), Abidjan, Région Des Lagunes, Côte d'Ivoire",AFTEC,Bac +3,Bac + 1,Décision Visa Renseignée,Planifié,Pas demandé,2018-08-26 15:09,2018-08-30 21:16,2018-04-09 13:05,2018-04-09 10:45,
157,CI17-06603-P02,Pré-consulaire,Serge Desire,ZEZE,opticienzeze88@yahoo.fr,1988-03-02,"ISFOP Optique LOKO Abj-Plateau, Abidjan, Région Des Lagunes, Côte d'Ivoire",Institut supérieur d'optique,Bac +2,,En saisie étudiant,Non autorisé,Pas demandé,,,,,
158,CI18-08840-P01,Pré-consulaire,Aymar Yves Hermann,SEA,yveshermann2002@yahoo.fr,1981-01-17,"PRIMPS(Prominence Institute of management and Professional Studies), SEKONDI-TAKORADI, western region, Ghana",SKEMA Business School - SKEMA Business School - Paris la Défense,Bac +4,,Instruction SCAC terminée,Planifié,Validé,2018-09-08 12:19,2018-07-09 06:05,2018-07-09 12:07,2018-07-09 08:30,2018-06-09 11:05
159,CI18-09275-P01,Pré-consulaire,Kangah Marie Josée Murielle,BOA,murielleboa@gmail.com,1997-08-01,"PIGIER Abj-Plateau, Abidjan, Région Des Lagunes, Côte d'Ivoire",CIEDEL,Bac +2,Bac +4,Décision Visa Renseignée,Planifié,Validé,2018-03-08 14:10,2018-09-14 14:12,2018-09-18 12:35,2018-09-18 10:00,2018-09-18 10:14
160,CI16-11411-P02,Pré-consulaire,Gnaminin Manassé,KABLAN,gnamininmanassek@gmail.com,1991-05-05,"INP-HB, Yamoussoukro, Région Des Lacs, Côte d'Ivoire",,Bac +5,Bac +4,Instruction SCAC terminée,Planifié,Validé,2018-05-27 02:40,2018-07-22 14:07,2018-07-31 18:44,2018-07-31 14:30,2018-08-22 18:45
161,CI17-13125-P01,Pré-consulaire,Yves Panfule,GOUE,boursedetude6@gmail.com,1996-12-30,"Université Félix Houphouët-Boigny, Abidjan, Région Des Lagunes, Côte d'Ivoire",Ecole AFTEC de Rennes,Bac +3,Bac + 1,Instruction SCAC terminée,Planifié,Pas demandé,2018-08-31 20:57,2018-09-13 01:01,2018-09-17 11:35,2018-09-17 09:15,
162,CI17-20369-P01,Pré-consulaire,Roméo,DIDO,r.dido15@gmail.com,1996-10-11,"Université Félix Houphouët-Boigny, Abidjan, Région Des Lagunes, Côte d'Ivoire",Université d'Evry-Val-d'Essonne - UFR de droit et sciences politiques,Bac +4,Bac +4,Instruction SCAC terminée,Planifié,Validé,2018-04-09 13:58,2018-07-10 12:30,2018-11-10 13:11,2018-11-10 10:45,2018-11-09 10:12
163,CI18-09621-P01,Pré-consulaire,Ramatou Myriam,MAIGA,myriam.maiga@yahoo.com,1992-05-02,"Ecole Pratique de la Chambre de Commerce et d'Industrie de CI Abj-Plateau (EPCCI), Abidjan, Région Des Lagunes, Côte d'Ivoire",Icoges Pays de la Loire,Bac +2,Bac + 1,Décision Visa Renseignée,Planifié,Validé,2018-05-09 14:03,2018-09-20 19:13,2018-09-26 11:19,2018-09-26 08:30,2018-09-25 10:41
164,CI18-10051-P01,Pré-consulaire,Menzoghe Sylvie,KOUNDE,syssi_k@yahoo.fr,1987-12-30,"Université Félix Houphouët-Boigny, Abidjan, Région Des Lagunes, Côte d'Ivoire",Université des Antilles - Université des Antilles - Pôle Guadeloupe,Bac +10,Bac +10,Soumis,Non autorisé,Pas demandé,2018-08-27 22:06,2018-10-09 17:42,,,
165,CI18-03086-P01,Pré-consulaire,Axelle,KOUAKOU,axellekouakou23@gmail.com,1998-08-23,"Graduate school of mangement, Abidjan, Région Des Lagunes, Côte d'Ivoire","INSEEC Business School - Programme Grande Ecole (Paris, Bordeaux, Chambéry, Lyon) - Inseec Business School - groupe INSEEC",Bac +2,,Décision Visa Renseignée,Planifié,Validé,2018-06-20 14:18,2018-12-09 02:06,2018-09-13 13:23,2018-09-13 09:15,2018-08-23 11:46
166,CI18-00097-P01,Pré-consulaire,Ange Sefora,BOKOUA,asmilegnokile03@gmail.com,1999-01-01,"Collège Anador Abobo, Abidjan, Région Des Lagunes, Côte d'Ivoire",ADIUT Maroc,Bac (terminale),Bac + 1,Décision Visa Renseignée,Planifié,Validé,2018-06-15 17:20,2018-09-14 12:44,2018-09-14 12:47,2018-09-13 10:00,2018-09-13 09:58
167,CI18-09966-P01,Pré-consulaire,kouakou bah michel,KOUAKOU,kouakoumichel56@yahoo.fr,1999-07-29,"Lycée Simone Ehivet Gbagbo Niangon, Abidjan, Région Des Lagunes, Côte d'Ivoire",école 42,Bac (terminale),Bac (terminale),Soumis,Autorisé,Demandé,2018-05-09 22:43,2018-10-29 12:03,,,
168,CI17-03807-P01,Pré-consulaire,Siaka,SYLLA,siakasylla96@gmail.com,1991-07-08,"Université de Nangui Abrogoua, Abidjan, Région Des Lagunes, Côte d'Ivoire",Université de Lorraine - Faculté des Sciences et Technologies,Bac +5,Bac + 5,Instruction SCAC terminée,Non autorisé,Pas demandé,2018-04-06 12:49,2018-04-06 12:49,2018-04-06 12:52,,
169,CI18-10522-P01,Pré-consulaire,Komlan Hervé,AKOU,akoukomlanherve@yahoo.com,1992-12-31,"Lycée de Nyékonakpoè, lomé, Maritime, Togo","Lycée des métiers des techniciens de la motorisation, de la construction et de l'environnement Gustave Eiffel",Bac (terminale),Bac + 1,Décision Visa Renseignée,Planifié,Validé,2018-07-09 16:17,2018-09-18 11:51,2018-09-19 16:23,2018-09-19 13:45,2018-09-19 10:29
170,CI17-08297-P02,Pré-consulaire,Mobio Ako Jaebets Emmanuel,NANGUI,emjaeb95@gmail.com,1998-12-14,"ALT ISTEA YOPOUGON, Abidjan, Région Des Lagunes, Côte d'Ivoire",CONSERVATOIRE A RAYONNEMENT REGIONAL DE PARIS CRR,Bac +2,Bac +2,Soumis,Non autorisé,Pas demandé,2018-07-09 14:38,2018-07-09 14:38,,,
171,CI18-09782-P01,Pré-consulaire,Awa Nakognon,TUO EPSE KOUASSI,awa.tuo@gmail.com,1985-08-05,"Université Claude Bernard, Lyon, Rhône-Alpes, France",Université Bourgogne Franche-Comté - UBFC,Bac +10,Bac +10,Décision Visa Renseignée,Non autorisé,Pas demandé,2018-08-22 20:35,2018-06-09 17:32,2018-07-09 12:22,,
172,CI17-12195-P02,Pré-consulaire,Druid Charles Emrique,HONRO,charlesdruid2@gmail.com,1989-12-31,"ESK Abj-Cocody, Abidjan, Région Des Lagunes, Côte d'Ivoire",CFA du groupe IGS,Bac +3,,Soumis,Autorisé,Validé,2018-07-09 20:50,2018-10-26 17:34,,,2018-12-10 11:02
173,CI18-09458-P01,Pré-consulaire,Guy Roland,SAKIA,sakia.g@yahoo.com,1991-01-05,"cours secondaire Entente, grand lahou, Région De La Vallée Du Bandama, Côte d'Ivoire",american school of modern music,Bac (terminale),Bac (terminale),Instruction SCAC terminée,Planifié,Validé,2018-08-13 16:49,2018-09-10 12:10,2018-10-15 13:34,2018-10-15 10:45,2018-10-16 10:45
174,CI16-07982-P01,Pré-consulaire,Bavieba Kouame Lemek Onesime,BROU,lemek.brou@yahoo.fr,1993-08-22,"Université Félix Houphouët-Boigny, Abidjan, Région Des Lagunes, Côte d'Ivoire",Nantes Y-nov Campus,Bac +3,Bac +3,Décision Visa Renseignée,Planifié,Validé,2018-07-17 19:34,2018-09-20 11:31,2018-09-24 11:27,2018-09-24 08:30,2018-09-24 10:37
175,CI18-10720-P01,Pré-consulaire,Etchobo Louis Emmanuel Cedric,GUIKA,louis.cedrick@yahoo.com,1994-05-19,"НГСХА - Académie d'Etat d'Agriculture de Nijni Novgorod, Nijni Novgorod, Nijni Novgorod, Russie",FORMACTION INSTITUT,Bac +2,Bac + 1,Instruction SCAC terminée,Planifié,Validé,2018-09-13 14:45,2018-02-10 15:48,2018-10-16 12:38,2018-10-16 10:00,2018-10-16 13:08
176,CI18-08339-P01,Pré-consulaire,Kouassi Justin,KRAMO,kramokouassijustin@gmail.com,1997-01-03,"Université Alassane OUATTARA, Bouaké, Région De La Vallée Du Bandama, Côte d'Ivoire",Esg,Bac +3,Bac +4,Décision Visa Renseignée,Planifié,Validé,2018-04-07 14:27,2018-08-22 19:03,2018-08-24 11:03,2018-08-22 10:45,2018-08-27 11:41
177,CI18-11257-P01,Pré-consulaire,Mohamed,SENOU,mohamed.senou.cv@gmail.com,1995-07-06,"Hautes Etudes en Gestion, Banque, Assurance et Commerce Abj-Marcory (HEGES), Abidjan, Région Des Lagunes, Côte d'Ivoire",Ecole Supérieure d'Informatique,Bac +2,Bac +1,Décision Visa Renseignée,Planifié,Validé,2018-09-19 20:13,2018-10-23 13:54,2018-10-26 12:11,2018-10-26 09:15,2018-10-29 09:56
178,CI17-17433-P01,Pré-consulaire,Hermand Hemerson Dieudonné,KOFFI,khemerson@gmail.com,1986-04-19,"Groupe Ecole des Hautes Etudes Commerciales Abj-Cocody (EDHEC), Abidjan, Région Des Lagunes, Côte d'Ivoire",Institut méditerranéen d'informatique et robotique,Bac +3,Bac +4,En saisie étudiant,Non autorisé,Pas demandé,2018-09-24 00:04,2018-09-24 00:04,,,
179,CI18-04960-P01,Pré-consulaire,Edjobatchi Ghislaine,ADIKO,ghislaineadiko@hotmail.com,1991-09-09,"Graduate School of Management, Abidjan, Région Des Lagunes, Côte d'Ivoire",Institut supérieur de management des entreprises,Bac +3,Bac +4,Décision Visa Renseignée,Planifié,Validé,2018-08-16 15:44,2018-08-10 12:59,2018-10-15 12:37,2018-10-15 10:00,2018-12-10 11:02
180,CI16-13991-P01,Pré-consulaire,Ange Sinforin,ORE,sinforinore2016@gmail.com,1987-10-20,"Ecole Pratique de la Chambre de Commerce et d'Industrie de CI Abj-Plateau (EPCCI), Abidjan, Région Des Lagunes, Côte d'Ivoire",SUPINFO - École supérieure d'informatique Site de Tours,Bac +3,Bac +3,Instruction SCAC terminée,Planifié,Validé,2018-09-24 11:55,2018-09-10 12:57,2018-10-16 11:03,2018-10-16 08:30,2018-12-10 11:01
181,CI18-09680-P01,Pré-consulaire,Aref,MTAIREK,arefmtairekps4@gmail.com,2000-04-08,"Cours Lamartine, Abidjan, Région Des Lagunes, Côte d'Ivoire",SUPINFO - Ecole supérieure d'informatique,Bac (terminale),Bac (terminale),Instruction SCAC terminée,Planifié,Validé,2018-08-29 11:24,2018-12-09 23:46,2018-09-18 13:19,2018-09-18 10:45,2018-10-29 11:01
182,CI18-09735-P01,Pré-consulaire,Papa Ibra,GUEYE,gpapa108@gmail.com,1992-07-14,"École Française d'Enseignement Technique, Abidjan, Région Des Lagunes, Maroc",SUPINFO - Ecole supérieure d'informatique,Bac +3,Bac +4,En saisie étudiant,Non autorisé,Pas demandé,2018-09-21 01:14,2018-09-27 16:41,,,
183,CI18-05065-P01,Pré-consulaire,Barolh Obrelce,NGANKOU - MISSIE,barolhmissie@yahoo.fr,1993-09-16,"Institut du Pétrole et du Gaz, Kinshasa, Kinshasa, République démocratique du Congo",Cours Diderot,Bac +3,Bac +5,Instruction SCAC terminée,Planifié,Validé,2018-09-28 13:53,2018-10-24 20:04,2018-02-11 12:44,2018-02-11 10:45,2018-10-31 09:51
184,CI18-10529-P01,Pré-consulaire,Yves-Axel Seraphin,KODJO,kodjoyvesaxel@gmail.com,1998-09-05,"Faculté de Management et des Sciences de l'Administration, Sousse, Sousse, Tunisie",isc paris,Bac +2,Bac +2,En saisie étudiant,Non autorisé,Pas demandé,2018-09-28 11:53,2018-09-28 11:53,,,
185,CI18-01270-P01,Pré-consulaire,Joelle Priscilla,GODE,godejoellepriscilla@gmail.com,1993-09-27,"Université Félix Houphouët-Boigny, Abidjan, Région Des Lagunes, Côte d'Ivoire",ÉCOLE INTERNATIONALE PRIVEE DE DROIT COMPARÉ ET D ÉCONOMIE,Bac +3,Bac +3,Instruction SCAC terminée,Planifié,Validé,2018-09-19 01:16,2018-04-10 12:16,2018-10-15 11:53,2018-10-15 08:30,2018-10-16 10:46
186,CI17-07713-P01,Pré-consulaire,Amenan Annic,N'GO,annicngo@gmail.com,1988-12-05,"Ecole Pratique de la Chambre de Commerce et d'Industrie de CI Abj-Plateau (EPCCI), Abidjan, Région Des Lagunes, Côte d'Ivoire",L'École Multimédia,Bac +2,Bac +3,Instruction SCAC terminée,Planifié,Validé,2018-05-09 15:47,2018-10-15 15:23,2018-10-19 15:55,2018-10-19 13:45,2018-10-19 10:23
187,CI18-11756-P01,Pré-consulaire,Kouadio Leon,GBANGBO,gkouadioleon@gmail.com,1989-12-21,"INSTITUT POLYTECHNIQUE ET HÔTELIER D'ABIDJAN, Abidjan, Région Des Lagunes, Côte d'Ivoire",Lycée polyvalent hôtelier Alexandre Dumas,Bac (terminale),Bac (terminale),Décision Visa Renseignée,Non autorisé,Pas demandé,2018-04-10 19:12,2018-10-23 15:47,2018-10-23 15:47,,
188,CI18-12392-P01,Pré-consulaire,Adama,COULIBALY,adamacoulibaly2931996@gmail.com,1996-03-29,"Collège le Mahou Abobo, Abidjan, Région Des Lagunes, Côte d'Ivoire",Université Rennes 1 - Faculté de droit et de science politique,Bac (terminale),Bac (terminale),Instruction SCAC terminée,Planifié,Validé,2018-04-10 17:32,2018-10-16 11:58,2018-10-16 12:18,2018-10-16 10:00,2018-10-16 10:46
189,CI18-10821-P01,Pré-consulaire,Astride,GUEYE,gueyecolombe97@gmail.com,1997-10-06,"Université  d'Etat de nijni novgorod, Nijni novgorod, Nijni novgorod, Russie",École  de commerce de lyon -  section  IEA,Bac +1,Bac +1,Instruction SCAC terminée,Planifié,Validé,2018-05-10 14:05,2018-10-31 09:15,2018-10-31 10:34,2018-10-31 08:30,2018-10-30 11:11
190,CI18-10116-P01,Pré-consulaire,Yah Grace Vanessa,KOUASSI,kouassi_yahvanessa@yahoo.fr,1992-04-10,"Groupe Ecole des Hautes Etudes Commerciales Abj-Cocody (EDHEC), Abidjan, Région Des Lagunes, Côte d'Ivoire",Conservatoire National des Arts et Métiers,Bac +5,Bac +4,Instruction SCAC terminée,Planifié,Validé,2018-09-25 13:32,2018-10-22 18:33,2018-10-26 11:12,2018-10-26 08:30,2018-10-16 10:44
191,CI18-10718-P01,Pré-consulaire,Nancy Sonia,DJOUBI KENMOE,nancyaurore@yahoo.fr,1990-01-05,"Université Félix Houphouët-Boigny, Abidjan, Région Des Lagunes, Côte d'Ivoire",UFR Médecine de Paris Descartes-Faculté de médecine,Bac +8,Bac +8,Instruction SCAC terminée,Planifié,Pas demandé,2018-06-10 03:08,2018-10-15 14:51,2018-10-22 13:17,2018-10-22 10:45,
192,CI18-11604-P01,Pré-consulaire,Telvyte Dellera Assamoi,N'TAKPE,ntakpetyvilte@gmail.com,1997-11-12,"lycée moderne djédjié A . Pierre Adjamé, Abidjan, Région Des Lagunes, Côte d'Ivoire",ESI METZ,Bac (terminale),Bac (terminale),Instruction SCAC terminée,Planifié,Validé,2018-09-26 13:35,2018-10-18 16:35,2018-10-23 11:09,2018-10-23 08:30,2018-08-10 10:35
193,CI18-11647-P01,Pré-consulaire,Guehi Ismael,GOHOUA,gohoua18ismael@gmail.com,1996-02-20,"Institut Sup. des Arts et de l'Action Culturelle (INSAAC), Abidjan, Région Des Lagunes, Côte d'Ivoire",Institut des Techniques Informatiques et Commerciales,Bac +1,Bac +1,Instruction SCAC terminée,Planifié,Validé,2018-04-10 19:21,2018-11-10 02:08,2018-10-19 17:00,2018-10-19 14:30,2018-10-29 09:31
194,CI18-12918-C01,Candidature,Seny,YAO,yaoseny2018@gmail.com,1999-01-06,"Institut Universitaire d'Abidjan (IUA), Abidjan, Région Des Lagunes, Côte d'Ivoire",,Bac +2,,En saisie étudiant,Non autorisé,Pas demandé,,,,,
195,CI18-11685-P01,Pré-consulaire,Matenin Aisha,TRAORE,mateninaisha2004@gmail.com,1992-04-20,"Universite Russe de l'Amitie des Peuples, moscou, Moscou, Russie",CESI - Ecole d’ingénieur cesi – ei.cesi - Nord-Ouest,Bac +6,Bac + 6,Décision Visa Renseignée,Planifié,Validé,2018-12-10 18:01,2018-10-19 18:13,2018-10-24 13:25,2018-10-24 10:45,2018-10-29 09:15
196,CI18-12657-P01,Pré-consulaire,Sinaly,BAKAYOKO,sinalybakayoko84@gmail.com,1997-10-28,"college vincent LEADER, Abidjan, Région Des Lagunes, Côte d'Ivoire",,Bac (terminale),MULTI NIVEAUX,En saisie étudiant,Non autorisé,Pas demandé,,,,,
197,CI17-02904-P01,Pré-consulaire,Dairlou Danielle,GOURENE,daniellegourene@yahoo.fr,1994-05-14,"Hec Abidjan, Abidjan, Région Des Lagunes, Côte d'Ivoire",ESLSCA Bussiness School Paris,Bac +4,Bac +4,Décision Visa Renseignée,Planifié,Validé,2018-08-23 17:45,2018-10-16 17:21,2018-10-16 18:54,2018-10-16 14:30,2018-10-10 11:53
198,CI18-11232-C02,Candidature,Steve Arnold,DJELLA,stevedjella@yahoo.fr,1992-01-31,"Institut Supérieur Technique Saint Jacques Abj-Plateau, Abidjan, Région Des Lagunes, Côte d'Ivoire",,Bac +2,,En saisie étudiant,Non autorisé,Pas demandé,,,,,
199,CI18-08757-P01,Pré-consulaire,Brice Jacob,TOUKPO,toukpobrice4@gmail.com,1989-04-14,"HETEC Abj-Abobo, Abidjan, Région Des Lagunes, Côte d'Ivoire",Ionis school of technology and management,Bac +4,,Instruction SCAC terminée,Planifié,Validé,2018-07-25 15:21,2018-02-10 18:37,2018-11-10 16:52,2018-11-10 14:30,2018-11-10 10:30
200,CI18-13426-P01,Pré-consulaire,Kady,DIABAGATE,cyberbenguiste@live.fr,1986-04-29,"lycée DESCARTES, Marrakech, Marrakech-Safi, Maroc",Université de Bordeaux - Faculté de droit et science politique - Site de Pessac,Bac +3,Bac (terminale),Décision Visa Renseignée,Non autorisé,Pas demandé,2018-10-18 15:35,2018-10-18 15:35,2018-10-22 11:07,,
201,CI18-13326-P01,Pré-consulaire,Mohamed Lamine,DIOMANDE,diomandelamine9@gmail.com,1999-02-18,"Université Félix Houphouët-Boigny, Abidjan, Région Des Lagunes, Côte d'Ivoire",université de rennes 1,Bac +1,Bac (terminale),Instruction SCAC terminée,Planifié,Validé,2018-10-23 23:23,2018-10-31 11:19,2018-10-31 11:39,2018-10-31 10:00,2018-10-31 09:50
202,CI18-13263-C01,Candidature,Maimouna,NACRO,maimounanacro41@gmail.com,1997-09-22,"ISTCJF-COCODY, Abidjan, Région Des Lagunes, Côte d'Ivoire",,Bac +3,,En saisie étudiant,Non autorisé,Pas demandé,,,,,
203,CI18-01069-P01,Pré-consulaire,N'Tobéni Kévin Allangba Toussaint,ZOUGOU,kevinzougou02@gmail.com,1996-11-13,"Institut Universitaire d'Abidjan (IUA), Abidjan, Région Des Lagunes, Côte d'Ivoire",Groupe Sup de Co La Rochelle,Bac +3,Bac + 3,Décision Visa Renseignée,Planifié,Validé,2018-07-13 16:53,2018-07-27 16:57,2018-07-31 17:18,2018-07-31 15:15,2018-08-22 17:40
204,CI18-13670-P01,Pré-consulaire,Houénoukpo Samson Sébastien,TOKANNOU,samsontokannou@gmail.com,1987-05-24,"Université Félix Houphouët-Boigny, Abidjan, Région Des Lagunes, Côte d'Ivoire",Université Paris 1 Panthéon-Sorbonne/ED 112,Bac +7,Bac +8,Instruction SCAC terminée,Planifié,Validé,2018-10-21 20:18,2018-10-30 10:14,2018-02-11 10:49,2018-02-11 09:15,2018-10-31 09:50
205,CI17-18233-P01,Pré-consulaire,Koudou Raymonde Cindy,DJELLOH,cindydjelloh92@gmail.com,1992-01-13,"Université Catholique d'Afrique de l'Ouest, Abidjan, Région Des Lagunes, Côte d'Ivoire",ESGRH,Bac +4,Bac +4,Soumis,Non autorisé,Pas demandé,2018-11-16 12:22,2018-11-16 12:22,,,
206,CI18-13640-P01,Pré-consulaire,Guelaybe Enosch,DJIEZION,enosch.djiezion@gmail.com,1977-02-28,"Université de Lille 1, Lille, département du nord, région haut de France, France",Université Paris Descartes,Bac +5,Bac +8,Instruction SCAC terminée,Planifié,Validé,2018-10-23 11:52,2018-03-11 11:12,2018-06-11 13:03,2018-06-11 08:30,2018-07-11 09:04
207,CI18-06803-P02,Pré-consulaire,Epiphanie,LIALY,epiphanielialy10@gmail.com,1994-08-10,"INSTITUT MARCATH YOPOUGON, Abidjan, Région Des Lagunes, Côte d'Ivoire",Ecole supérieure de publicité communication et de marketing,Bac +2,Bac + 1,Soumis,Non autorisé,Pas demandé,2018-10-15 14:40,2018-10-30 19:28,,,
208,CI17-08607-C03,Candidature,Innocent Kévin,KOUADIO,kevin.kouadio777@gmail.com,1981-01-01,"Emlyon Business School, Abidjan, Région Des Lagunes, Côte d'Ivoire",,Bac +5,,En saisie étudiant,Non autorisé,Pas demandé,,,,,
209,CI15-00224-C04,Candidature,Ben Ibrahim,KONE,koneben34@gmail.com,1998-07-09,"Université Félix Houphouët-Boigny, Abidjan, Région Des Lagunes, Côte d'Ivoire",,Bac +2,,En saisie étudiant,Non autorisé,Pas demandé,,,,,
210,CI18-00909-P01,Pré-consulaire,Yele Christelle,SORO,soroyelechristelle@gmail.com,1998-07-07,,,,Bac +3,En saisie étudiant,Non autorisé,Pas demandé,,,,,
211,CI18-12667-C01,Candidature,David Dao Junior,SERY BI,tanohyaok25@gmail.com,2002-01-14,"Collège Le Figuier, Abidjan, Région Des Lagunes, Côte d'Ivoire",,Bac (terminale),,En saisie étudiant,Non autorisé,Pas demandé,,,,,
212,CI17-22497-P01,Pré-consulaire,William Michel,GBOGOU,gbogouwm@gmail.com,1989-03-14,"Université Félix Houphouët-Boigny, Abidjan, Région Des Lagunes, Côte d'Ivoire",Sorbonne Université faculté de Médecine,Bac +7,Bac +9,Soumis,Non autorisé,Pas demandé,2018-10-26 19:51,2018-10-30 13:20,,,
213,CI18-13524-P01,Pré-consulaire,Tiemoko Ibrahim Naban-Wan,FOFANA,tifofana@yahoo.fr,1993-01-02,"UNIVERSITE MOHAMMED PREMIER, OUJDA, ORIENTAL, Maroc",MBA ESG Paris,Bac +5,,Instruction SCAC terminée,Planifié,Validé,2018-10-29 10:20,2018-10-31 10:50,2018-06-11 09:41,2018-06-11 09:15,2018-05-11 10:10
214,CI18-14579-P01,Pré-consulaire,Saidou Fousseni,KAMAGATE,kamagatesaidou1234@gmail.com,1997-06-27,"Ecole Supérieure du Bâtiment et des Travaux Publics Abj-Plateau (ESBTP), Abidjan, Région Des Lagunes, Côte d'Ivoire",Ecole spéciale d'architecture,Bac +1,,Instruction SCAC terminée,Planifié,Validé,2018-10-31 12:25,2018-02-11 22:11,2018-11-13 11:53,2018-11-13 08:30,2018-11-14 09:19
215,CI15-00706-P01,Pré-consulaire,Yannick Arnold,DEASSE,ydeasse@yahoo.fr,1988-12-22,"Université Félix Houphouët-Boigny, Abidjan, Région Des Lagunes, Côte d'Ivoire",Université de Montpellier - UFR de droit et science politique,Bac +4,Bac + 2,Décision Visa Renseignée,Non autorisé,Pas demandé,2018-06-28 18:18,2018-06-28 18:18,2018-02-07 16:06,,
216,CI16-01034-P01,Pré-consulaire,Koffi Oscar Cyrille,KOUASSI,cyrilleoscarkouassi@gmail.com,1994-01-15,"Centre International de Formation à l'Expertise Comptable (CIFEC), Abidjan, Région Des Lagunes, Côte d'Ivoire",Groupe école de commerce de Lyon- campus de Nîmes,Bac +3,Bac +4,Instruction SCAC terminée,Planifié,Validé,2018-04-09 05:06,2018-11-14 11:21,2018-11-14 12:13,2018-11-14 10:00,2018-09-11 19:03
217,CI18-14796-C01,Candidature,Kano Stephane,OUANMA,kano.ouanma@uvci.edu.ci,1998-03-22,"Université Virtuelle de Côte d'Ivoire, Abidjan, Région Des Lagunes, Côte d'Ivoire",,Bac +2,,En saisie étudiant,Non autorisé,Pas demandé,,,,,
218,CI18-14216-C01,Candidature,Djoumant Patrick Riel,KOUADIO,kpatrickriel@gmail.com,1997-04-02,,,,,En saisie étudiant,Non autorisé,Pas demandé,,,,,
219,CI18-13246-P01,Pré-consulaire,Ephrem Jean Romain,SOMBO,ephremsombo@gmail.com,1993-06-16,"Ecole Nouvelle Supérieure d'Ingénieurs et de Technologie, Abidjan, Région Des Lagunes, Côte d'Ivoire",INCOMM ( Internet Communication ),Bac +5,Bac +5,En saisie étudiant,Non autorisé,Pas demandé,2018-10-17 17:25,2018-10-31 22:11,,,
220,CI16-03811-P01,Pré-consulaire,Flora Evelyne,M'BRAS,florie1930@gmail.com,1992-07-31,"Université Félix Houphouët-Boigny, Abidjan, Région Des Lagunes, Côte d'Ivoire",Cours Diderot,Bac +5,Bac +3,Décision Visa Renseignée,Planifié,Validé,2018-08-30 18:44,2018-09-19 12:47,2018-09-25 17:35,2018-09-25 15:15,2018-09-26 11:14
221,CI18-04819-C02,Candidature,vemo joseph arsene,SOUMAHORO,soumj2012@gmail.com,1999-01-05,"INP-HB, Abidjan, Région Des Lagunes, Côte d'Ivoire",,Bac +1,,En saisie étudiant,Non autorisé,Pas demandé,,,,,
222,CI18-08044-P01,Pré-consulaire,Batchui Anais Lynda,ANODJO,lyabgr@gmail.com,1997-05-08,"Université Catholique d'Afrique de l'Ouest, Abidjan, Région Des Lagunes, Côte d'Ivoire",Groupe ESC Pau,Bac +3,Bac +4,Instruction SCAC terminée,Planifié,Validé,2018-07-10 10:07,2018-09-11 10:07,2018-09-11 10:22,2018-09-11 09:15,2018-09-11 19:04
223,CI18-08635-C02,Candidature,Fousseni,DOUMBIA,doumbiafousseni74@gmail.com,1999-07-31,"Collège Saint Exupéry, Abidjan, Région Des Lagunes, Côte d'Ivoire",,Bac (terminale),,En saisie étudiant,Non autorisé,Pas demandé,,,,,
224,CI18-15281-C01,Candidature,Yacouba,BATHILY,bathyacou391@gmail.com,1991-12-26,"EDHEC BOUAKE, Bouaké, Région De La Vallée Du Bandama, Côte d'Ivoire",,Bac +2,,En saisie étudiant,Non autorisé,Pas demandé,,,,,
225,CI18-14041-P01,Pré-consulaire,Mamadou,KONE,kone9867@gmail.com,1996-08-25,"Academie d'agronomie de Nijni Novgorod, Nijnij Novgorod, Gorkis, Russie",FORMACTION INSTITUT,Bac +1,Bac +1,Soumis,Non autorisé,Pas demandé,2018-04-11 00:25,2018-04-11 00:25,,,
226,CI18-14802-C01,Candidature,Koffi Assala Jean Eudes,KOUAKOU,kouakoujeaneudes@yahoo.fr,1996-05-11,"INP-HB, Yamoussoukro, Région Des Lacs, Côte d'Ivoire",,Bac +3,,En saisie étudiant,Non autorisé,Pas demandé,,,,,
227,CI18-08348-P01,Pré-consulaire,Bintou Michelle Aimée,BANCE,bancemichelle75@gmail.com,1998-04-30,"Institut Universitaire d'Abidjan (IUA), Abidjan, Région Des Lagunes, Côte d'Ivoire",Weller International Business School,Bac +1,Bac (terminale),Instruction SCAC terminée,Planifié,Validé,2018-10-31 09:49,2018-08-11 19:35,2018-11-21 12:56,2018-11-21 08:30,2018-08-11 09:09
228,CI18-14083-P01,Pré-consulaire,Yaya,KONE,kyayausher@gmail.com,1996-10-03,"Académie d'agriculture de l'Etat de Nizhny Novgorod, Nijni Novgorod, Région de Nizhny Novgorod, Russie",FORMACTION INSTITUT,Bac +1,Bac + 1,Instruction SCAC terminée,Planifié,Validé,2018-10-30 13:48,2018-08-11 10:35,2018-11-14 10:12,2018-11-14 08:30,2018-11-16 09:07
229,CI18-08029-P01,Pré-consulaire,Abdoul Mouhmine,SANGARE,kazamaaa2@gmail.com,1997-01-04,"Centre Universitaire Professionnalisé, Abidjan, Région Des Lagunes, Côte d'Ivoire",ICS Bégué,Bac +1,,Décision Visa Renseignée,Planifié,Validé,2018-08-23 15:40,2018-08-23 15:40,2018-08-27 17:13,2018-08-27 08:30,2018-08-28 10:48
230,CI18-13294-P01,Pré-consulaire,Bazoumana,SAMASSI,zoumsamassi18@gmail.com,1989-07-30,"HEC- La Roche, Abidjan, Région Des Lagunes, Côte d'Ivoire",FORMACTION INSTITUT,Bac +2,Bac + 1,Instruction SCAC terminée,Non autorisé,Pas demandé,2018-10-30 19:27,2018-03-11 00:28,2018-07-11 10:08,,
231,CI16-18656-P01,Pré-consulaire,Mamadou,BAMBA,mam2bamba@gmail.com,1988-07-27,"Université Félix Houphouët-Boigny, Abidjan, Région Des Lagunes, Côte d'Ivoire",ESI Business School,Bac +4,Bac +5,Décision Visa Renseignée,Planifié,Validé,2018-05-04 17:44,2018-06-18 15:16,2018-06-19 17:46,2018-06-19 14:30,2018-06-20 11:39
232,CI18-09264-C02,Candidature,Herve,KOUAME,herveaxnel00@gmail.com,2003-10-14,"Collège les petits Soleils, Abidjan, Région Des Lagunes, Côte d'Ivoire",,Bac (terminale),,En saisie étudiant,Non autorisé,Pas demandé,,,,,
233,CI18-15935-C01,Candidature,Benian Konan Kesiac,LOUKOU,kesiackonan07@gmail.com,1997-12-28,"Institut d'Enseignement Secondaire EDEN Yamoussoukro, Yamoussoukro, Région Des Lacs, Côte d'Ivoire",,Bac (terminale),,En saisie étudiant,Non autorisé,Pas demandé,,,,,
234,CI18-04448-P01,Pré-consulaire,Souleymane,KARAMOKO,karamoko821@gmail.com,1997-09-30,"Université Catholique d'Afrique de l'Ouest, Abidjan, Région Des Lagunes, Côte d'Ivoire",,Bac +2,Bac +1,En saisie étudiant,Non autorisé,Pas demandé,,,,,
235,CI17-18441-P01,Pré-consulaire,Marie-Jeanne,KANGA,majobb101@gmail.com,1995-12-17,"Université Félix Houphouët-Boigny, Abidjan, Région Des Lagunes, Côte d'Ivoire",Université de Poitiers - UFR sciences humaines et arts (Poitiers)-CFMI(Poitiers)-IFFCAM (Ménigoute)-CREADOC (Angoulême),Bac +5,Bac + 3,Décision Visa Renseignée,Non autorisé,Pas demandé,2018-05-28 15:50,2018-05-28 15:50,,,
236,CI18-13136-C01,Candidature,Mariame,DOUMBIA,mariamedoumbia468@gmail.com,1993-12-30,"Université Alassane OUATTARA, Bouaké, Région De La Vallée Du Bandama, Côte d'Ivoire",,Bac +4,,En saisie étudiant,Non autorisé,Pas demandé,,,,,
237,CI18-07234-P01,Pré-consulaire,Cloud Romuald,ATTOUBEH,cloudromuald@gmail.com,1994-09-02,"Institut Supérieur Tertiaire et Technologique Appliqués Abj-Marcory (ISTTA), Abidjan, Région Des Lagunes, Côte d'Ivoire",Institut supérieur européen de management agroalimentaire,Bac +2,,Décision Visa Renseignée,Planifié,Validé,2018-09-05 14:44,2018-08-13 22:16,2018-08-17 11:55,2018-08-17 09:15,2018-12-07 10:39
238,CI17-15586-C02,Candidature,Soumaila,DIALLO,diallosoumaila55@gmail.com,1998-12-30,"Lycée Moderne 2 Gagnoa, Gagnoa, Région Du Fromager, Côte d'Ivoire",,Bac (terminale),,En saisie étudiant,Non autorisé,Pas demandé,,,,,
239,CI17-07292-P01,Pré-consulaire,Nandoh Emmanuel,KOUASSI GOGO,kgogonandoh@yahoo.fr,1991-02-09,"Ecole Supérieure de Commerce et d'Administration des Entreprises, Niamey, Dar Es Salam, Niger",Institut national des techniques économiques et comptables CNAM,Bac +4,Bac +5,Instruction SCAC terminée,Planifié,Validé,2018-11-11 10:41,2018-11-13 13:07,2018-11-23 14:22,2018-11-23 10:45,2018-11-23 11:41
240,CI18-09874-P01,Pré-consulaire,Jean Aristide,KOFFI,koffij77@gmail.com,1992-03-04,"Institut Marcath, Abidjan, Région Des Lagunes, Côte d'Ivoire",Ecole de Commerce de Lyon,Bac +2,Bac +3,En saisie étudiant,Non autorisé,Pas demandé,2018-09-11 23:48,2018-11-13 21:59,,,
241,CI18-13884-P01,Pré-consulaire,Marie Edna,KOUADIO,joellevanessatoulo1@Yahoo.com,1997-04-16,"Université Internationale des Sciences Sociales Hampâté Bâh (UNISS), Abidjan, Région Des Lagunes, Côte d'Ivoire",Université de Lille 2 - Institut d'études judiciaires - Faculté sciences juridiques politiques - Site de Lille,Bac +2,Bac +2,Soumis,Non autorisé,Pas demandé,2018-11-20 12:34,2018-11-20 12:34,,,
242,CI17-16877-P01,Pré-consulaire,Borel Vignon Fadil,HOUENOU-DEDRAVO,vignonbi@gmail.com,1995-12-29,"Ecole de Spécialité Multimédia d'Abidjan Marcory (ESMA), Abidjan, Région Des Lagunes, Côte d'Ivoire",L'école Multimédia,Bac +2,Bac +2,Décision Visa Renseignée,Planifié,Pas demandé,2018-03-09 11:54,2018-09-18 20:52,2018-09-21 12:38,2018-09-21 10:45,
243,CI18-06700-C02,Candidature,Irie Aboubacar,DJE,irie.dje@uvci.edu.ci,1994-12-28,"Institut Universitaire d'Abidjan (IUA), Abidjan, Région Des Lagunes, Côte d'Ivoire",,Bac +3,,En saisie étudiant,Non autorisé,Pas demandé,,,,,
244,CI18-15258-P01,Pré-consulaire,Mamadou Bilo,BARRY,bmamadou001@yahoo.com,1996-12-15,"HEC - Abidjan, Abidjan, Région Des Lagunes, Côte d'Ivoire",IEAM administration et management,Bac +2,Bac +1,Soumis,Planifié,Demandé,2018-09-11 13:43,2018-11-14 18:25,,2018-11-30 08:30,
245,CI17-18859-C02,Candidature,Banidélé Gyldas Martin,BATCHO,batchogildas73@gmail.com,1999-12-20,"Université Félix Houphouët-Boigny, Abidjan, Région Des Lagunes, Côte d'Ivoire",,Bac +1,,En saisie étudiant,Non autorisé,Pas demandé,,,,,
246,CI18-16121-C01,Candidature,Ismaila,ZONGO,ismailazongo1995@gmail.com,1995-12-22,"Université Félix Houphouët-Boigny, Abidjan, Région Des Lagunes, Côte d'Ivoire",,Bac +2,,En saisie étudiant,Non autorisé,Pas demandé,,,,,
247,CI16-14451-C03,Candidature,Philomène Renée Hady,SY,hadys979@gmail.com,1995-06-19,"Université Catholique d'Afrique de l'Ouest, Abidjan, Région Des Lagunes, Côte d'Ivoire",,Bac +4,,En saisie étudiant,Non autorisé,Pas demandé,,,,,
248,CI17-19781-P01,Pré-consulaire,Kouakou Jean,EKOUN,ekounkouakoujean@yahoo.fr,1979-03-08,"Université Alassane OUATTARA, Bouaké, Région De La Vallée Du Bandama, Côte d'Ivoire",MBA ESG Paris,Bac +4,,Soumis,Non autorisé,Pas demandé,2018-11-21 21:50,2018-11-21 21:50,,,
249,CI17-08721-P02,Pré-consulaire,Jimmy,BULL,jbull635@gmail.com,1998-11-12,"Lycée français la fanrandole, Abidjan, Région Des Lagunes, Côte d'Ivoire","Université Pau et Pays de l'Adour - UFR de droit, économie et gestion",Bac (terminale),Bac (terminale),Décision Visa Renseignée,Non autorisé,Pas demandé,2018-07-25 18:57,2018-07-25 18:57,2018-07-08 09:29,,
250,CI18-17102-C01,Candidature,Lou Tolou Milena,ZOMA,zomaloumilena@gmail.com,2000-03-11,"Institut Supérieur Jean Paul 2, Abidjan, Région Des Lagunes, Côte d'Ivoire",,Bac +1,,En saisie étudiant,Non autorisé,Pas demandé,,,,,
251,CI18-05701-C02,Candidature,Ismael,BAMBA,ismobamba7920@gmail.com,2000-05-31,"Hetec Bouaké, Abidjan, Région Des Lagunes, Côte d'Ivoire",,Bac +2,,En saisie étudiant,Non autorisé,Pas demandé,,,,,
252,CI18-15761-C01,Candidature,Marie Reine Claudia,AKOCHI,marieclaudiaakochi@gmail.com,2001-08-17,"Collège William Ponty Selmer Yopougon, Abidjan, Région Des Lagunes, Côte d'Ivoire",,Bac (terminale),,En saisie étudiant,Non autorisé,Pas demandé,,,,,
253,CI17-15553-C02,Candidature,Sodiki Olawale,SALAMI,salamisodikiolawale@gmail.com,1996-06-23,"Groupe CEFIAT, Abidjan, Région Des Lagunes, Côte d'Ivoire",,Bac +2,,En saisie étudiant,Non autorisé,Pas demandé,,,,,
254,CI16-15753-C03,Candidature,N'Datien Esaie,TOURE,esaie12051998@gmail.com,1998-05-12,"Université Catholique d'Afrique de l'Ouest, Abidjan, Région Des Lagunes, France",,Bac +2,,En saisie étudiant,Non autorisé,Pas demandé,,,,,
255,CI17-19551-P01,Pré-consulaire,Mariana,TRAORE,marianatraore.mt@gmail.com,1992-10-03,"PIGIER Abj-Plateau, Abidjan, Région Des Lagunes, Côte d'Ivoire","INSEEC Business School - Programme Grande Ecole (Paris, Bordeaux, Chambéry, Lyon) - Inseec Business School - groupe INSEEC",Bac +5,,Décision Visa Renseignée,Planifié,Validé,2018-05-22 19:02,2018-06-18 13:09,2018-06-18 13:11,2018-06-18 09:15,2018-06-14 10:23
256,CI17-18134-P01,Pré-consulaire,Climbie Patrick,EZOUA,patrickezoua@yahoo.fr,1990-02-03,"Université Félix Houphouët-Boigny, Abidjan, Région Des Lagunes, Côte d'Ivoire","Université Jean Monnet Saint-Etienne - Faculté d'arts, lettres et langues",Bac +5,Bac + 4,Décision Visa Renseignée,Non autorisé,Pas demandé,2018-06-22 19:12,2018-06-22 19:12,,,
257,CI18-07848-P01,Pré-consulaire,Opoule Israel Axel Joël,MEGBAGNON,axelmegbagnon@gmail.com,1997-12-15,"Institut Universitaire d'Abidjan (IUA), Abidjan, Région Des Lagunes, Côte d'Ivoire",IGS-RH,Bac +3,Bac +2,Décision Visa Renseignée,Planifié,Validé,2018-07-22 17:04,2018-07-22 17:04,2018-05-09 18:46,2018-05-09 16:00,2018-08-23 12:02
258,CI18-16645-C01,Candidature,Othniel Emmanuel,KOUASSI,othnielemmanuelkouassi@yahoo.fr,2001-12-12,"Groupe Scolaire Commandant Cousteau Cocody II, Abidjan, Région Des Lagunes, Côte d'Ivoire",,Bac (terminale),,En saisie étudiant,Non autorisé,Pas demandé,,,,,
259,CI17-21947-C02,Candidature,Kylian Jean Emmanuel,DEBOYARD,kyliandeboyard@gmail.com,1996-12-27,"COLLÈGE PRIVE PIERRE CHARLES 3 ABOBO, Abidjan, Région Des Lagunes, Côte d'Ivoire",,Bac (terminale),,En saisie étudiant,Non autorisé,Pas demandé,,,,,
260,CI18-17476-C01,Candidature,Ugochukwu Eric Jacques,SERI,serieric58@gmail.com,1999-07-14,"Lycée Moderne Treichville, Abidjan, Région Des Lagunes, Côte d'Ivoire",,Bac (terminale),,En saisie étudiant,Non autorisé,Pas demandé,,,,,
261,CI18-11634-P01,Pré-consulaire,Kouassi Noel,KOUAME,noeljob@yahoo.fr,1969-07-15,"Université Lyon 3  IAE, Lyon, Rhone, France","INSEEC Business School - Programme Grande Ecole (Paris, Bordeaux, Chambéry, Lyon) - Inseec Business School - groupe INSEEC",Bac +9,,Soumis,Non autorisé,Pas demandé,2018-11-16 05:54,2018-11-16 05:54,,,
262,CI16-09059-C03,Candidature,Sidik,OLADAPO,sidikoladapo@gmail.com,1994-04-23,,,,,En saisie étudiant,Non autorisé,Pas demandé,,,,,
263,CI18-15991-P01,Pré-consulaire,Moaye-Kouame Grace-Estelle,EKRA,moayekouame94@gmail.com,1994-04-18,"AGITEL Formation Abj-Cocody, Abidjan, Région Des Lagunes, Côte d'Ivoire",Weller International Business School,Bac +3,,Soumis,Non autorisé,Pas demandé,2018-11-14 03:04,2018-11-15 11:43,,,
264,CI18-15146-C01,Candidature,Ibrahima Abdoulah,KONE,koneabdoulah1er@gmail.com,1997-05-07,"Université Alassane OUATTARA, Bouaké, Région De La Vallée Du Bandama, Côte d'Ivoire",,Bac +1,,En saisie étudiant,Non autorisé,Pas demandé,,,,,
265,CI16-12884-C03,Candidature,Ahossou Laurelle Marie Josseline,N'GUESSAN,laurelle2205@gmail.com,1992-05-22,"Université Méthodiste de Côte d'Ivoire, Abidjan, Région Des Lagunes, Côte d'Ivoire",,Bac +5,,En saisie étudiant,Non autorisé,Pas demandé,,,,,
